{
  "displayname": "Italy",
  "maxLng": 18.53368,
  "minLng": 6.628323,
  "maxLat": 47.095038,
  "minLat": 36.851830,
  "cities": [
  {
    "name": "Desana",
    "lat": 45.2688216,
    "lng": 8.3567281
  },
  {
    "name": "Borgone Susa",
    "lat": 45.122844,
    "lng": 7.239712
  },
  {
    "name": "Librizzi",
    "lat": 38.096866,
    "lng": 14.9583399
  },
  {
    "name": "Bisaccia",
    "lat": 41.012121,
    "lng": 15.374753
  },
  {
    "name": "Cordignano",
    "lat": 45.9489699,
    "lng": 12.4160204
  },
  {
    "name": "Calcinelli",
    "lat": 43.7522329,
    "lng": 12.9195304
  },
  {
    "name": "Casole Bruzio",
    "lat": 39.284394,
    "lng": 16.336495
  },
  {
    "name": "Sant'Angelo A Cupolo",
    "lat": 41.069118,
    "lng": 14.80374
  },
  {
    "name": "Badalasco",
    "lat": 45.5419198,
    "lng": 9.5546772
  },
  {
    "name": "Cenate Sopra",
    "lat": 45.7118675,
    "lng": 9.8237131
  },
  {
    "name": "Bagnolo San Vito",
    "lat": 45.0922527,
    "lng": 10.8804287
  },
  {
    "name": "Riolo Terme",
    "lat": 44.2770835,
    "lng": 11.72452
  },
  {
    "name": "Recco",
    "lat": 44.3652396,
    "lng": 9.1462995
  },
  {
    "name": "Pecetto",
    "lat": 45.0523542,
    "lng": 7.7183632
  },
  {
    "name": "Casali-San Potito",
    "lat": 40.7632316,
    "lng": 14.6804505
  },
  {
    "name": "Vicari",
    "lat": 37.8250916,
    "lng": 13.5713017
  },
  {
    "name": "Pometo",
    "lat": 44.5755961,
    "lng": 9.9098933
  },
  {
    "name": "Villa Carcina",
    "lat": 45.632214,
    "lng": 10.1944422
  },
  {
    "name": "Duomo",
    "lat": 43.7731017,
    "lng": 11.2565747
  },
  {
    "name": "Magliano in Toscana",
    "lat": 42.5994416,
    "lng": 11.2917394
  },
  {
    "name": "Poianella",
    "lat": 45.6327764,
    "lng": 11.6257878
  },
  {
    "name": "Cerea",
    "lat": 45.192043,
    "lng": 11.2129241
  },
  {
    "name": "Spinadesco",
    "lat": 45.1487508,
    "lng": 9.9296724
  },
  {
    "name": "Prati",
    "lat": 41.9083292,
    "lng": 12.464388
  },
  {
    "name": "Monte San Giovanni in Sabina",
    "lat": 42.3285159,
    "lng": 12.7773713
  },
  {
    "name": "Scarlino",
    "lat": 42.9031202,
    "lng": 10.8342394
  },
  {
    "name": "Borghetto Lodigiano",
    "lat": 45.2132677,
    "lng": 9.4996828
  },
  {
    "name": "Meduno",
    "lat": 46.2167789,
    "lng": 12.785867
  },
  {
    "name": "Salgareda",
    "lat": 45.704123,
    "lng": 12.4925871
  },
  {
    "name": "Montecalvo in Foglia",
    "lat": 43.811562,
    "lng": 12.631052
  },
  {
    "name": "Belverde",
    "lat": 43.3471953,
    "lng": 11.3051249
  },
  {
    "name": "Capanne-Prato-Cinquale",
    "lat": 43.9992244,
    "lng": 10.1609754
  },
  {
    "name": "Ciconia",
    "lat": 42.7309459,
    "lng": 12.1349697
  },
  {
    "name": "Cermenate",
    "lat": 45.7000804,
    "lng": 9.0800884
  },
  {
    "name": "Castelluzzo",
    "lat": 37.6020926,
    "lng": 13.4909656
  },
  {
    "name": "Todi",
    "lat": 42.7824434,
    "lng": 12.4062554
  },
  {
    "name": "Pozzolo Formigaro",
    "lat": 44.7951536,
    "lng": 8.7848493
  },
  {
    "name": "Cologno al Serio",
    "lat": 45.5797721,
    "lng": 9.7077253
  },
  {
    "name": "Roncone",
    "lat": 45.9835968,
    "lng": 10.6709534
  },
  {
    "name": "Praiano",
    "lat": 40.611107,
    "lng": 14.53134
  },
  {
    "name": "Osteria Nuova",
    "lat": 42.0376161,
    "lng": 12.3087698
  },
  {
    "name": "Laganadi",
    "lat": 38.173369,
    "lng": 15.741395
  },
  {
    "name": "Cardinale",
    "lat": 38.6428339,
    "lng": 16.3877743
  },
  {
    "name": "Polignano a Mare",
    "lat": 40.9961185,
    "lng": 17.2195857
  },
  {
    "name": "Mango",
    "lat": 44.686443,
    "lng": 8.150239
  },
  {
    "name": "Settala",
    "lat": 45.4544127,
    "lng": 9.3867659
  },
  {
    "name": "Scopello",
    "lat": 45.7727562,
    "lng": 8.0940582
  },
  {
    "name": "Fresonara",
    "lat": 44.78295,
    "lng": 8.686149
  },
  {
    "name": "Farra di Soligo",
    "lat": 45.9053812,
    "lng": 12.1254301
  },
  {
    "name": "Meggiano",
    "lat": 42.6971774,
    "lng": 12.6813277
  },
  {
    "name": "San Giovanni in Fiore",
    "lat": 39.2529756,
    "lng": 16.6973766
  },
  {
    "name": "Forno Canavese",
    "lat": 45.3478112,
    "lng": 7.5665504
  },
  {
    "name": "Monticchio",
    "lat": 42.2968338,
    "lng": 12.7522731
  },
  {
    "name": "Motta Camastra",
    "lat": 37.8956251,
    "lng": 15.1723466
  },
  {
    "name": "Civesio",
    "lat": 45.3955204,
    "lng": 9.2671921
  },
  {
    "name": "Rognano",
    "lat": 45.288466,
    "lng": 9.090248
  },
  {
    "name": "Casape",
    "lat": 41.906517,
    "lng": 12.8852871
  },
  {
    "name": "Piantedo",
    "lat": 46.13419,
    "lng": 9.42934
  },
  {
    "name": "Varallo Pombia",
    "lat": 45.6659038,
    "lng": 8.6326925
  },
  {
    "name": "Eboli",
    "lat": 40.6175146,
    "lng": 15.0569438
  },
  {
    "name": "Cairo Montenotte",
    "lat": 44.3992684,
    "lng": 8.2745606
  },
  {
    "name": "Corbanese",
    "lat": 45.9499129,
    "lng": 12.2364874
  },
  {
    "name": "Valdottavo",
    "lat": 43.9433423,
    "lng": 10.4781582
  },
  {
    "name": "Massimeno",
    "lat": 46.1417556,
    "lng": 10.773134
  },
  {
    "name": "Guagnano",
    "lat": 40.401227,
    "lng": 17.949018
  },
  {
    "name": "Francica",
    "lat": 38.615679,
    "lng": 16.099297
  },
  {
    "name": "Giulianova",
    "lat": 42.7534856,
    "lng": 13.9667011
  },
  {
    "name": "Opera",
    "lat": 45.373069,
    "lng": 9.211149
  },
  {
    "name": "San Severo",
    "lat": 41.6897761,
    "lng": 15.3776211
  },
  {
    "name": "Taranto",
    "lat": 40.5488156,
    "lng": 17.0805801
  },
  {
    "name": "Cavedine",
    "lat": 45.9952,
    "lng": 10.973577
  },
  {
    "name": "Serravalle",
    "lat": 42.7859059,
    "lng": 13.0219044
  },
  {
    "name": "Mezzanego",
    "lat": 44.3920085,
    "lng": 9.407722
  },
  {
    "name": "Melpignano",
    "lat": 40.1570806,
    "lng": 18.2930785
  },
  {
    "name": "Succivo",
    "lat": 40.968012,
    "lng": 14.255629
  },
  {
    "name": "Barbarano Romano",
    "lat": 42.2498341,
    "lng": 12.0673735
  },
  {
    "name": "Citt\u00e0 metropolitana di Roma Capitale",
    "lat": 41.8522393,
    "lng": 12.6312079
  },
  {
    "name": "Pieve Vergonte",
    "lat": 46.012976,
    "lng": 8.260816
  },
  {
    "name": "Canolo",
    "lat": 38.3150434,
    "lng": 16.1997834
  },
  {
    "name": "Cappella de' Picenardi",
    "lat": 45.158573,
    "lng": 10.229976
  },
  {
    "name": "Monterusciello",
    "lat": 40.8679797,
    "lng": 14.0889885
  },
  {
    "name": "Fragagnano",
    "lat": 40.431924,
    "lng": 17.472207
  },
  {
    "name": "Corio",
    "lat": 45.3134988,
    "lng": 7.5320874
  },
  {
    "name": "Piangaiano",
    "lat": 45.7891041,
    "lng": 9.9996674
  },
  {
    "name": "Fiesso",
    "lat": 44.5114043,
    "lng": 11.481261
  },
  {
    "name": "Bibbiano",
    "lat": 44.6634303,
    "lng": 10.4727188
  },
  {
    "name": "Caminata",
    "lat": 44.910359,
    "lng": 9.30816
  },
  {
    "name": "Delia",
    "lat": 37.3560363,
    "lng": 13.9272894
  },
  {
    "name": "San Martino Dall'Argine",
    "lat": 45.0990557,
    "lng": 10.5183482
  },
  {
    "name": "Sant'Arcangelo Trimonte",
    "lat": 41.1655125,
    "lng": 14.9390381
  },
  {
    "name": "Ronzo-Chienis",
    "lat": 45.889597,
    "lng": 10.950079
  },
  {
    "name": "Pachino",
    "lat": 36.7004975,
    "lng": 15.0735996
  },
  {
    "name": "Vialfr\u00e8",
    "lat": 45.3810192,
    "lng": 7.8178285
  },
  {
    "name": "Mercato",
    "lat": 40.848357,
    "lng": 14.2719301
  },
  {
    "name": "Morgex",
    "lat": 45.7580223,
    "lng": 7.0354328
  },
  {
    "name": "Borgo San Giovanni",
    "lat": 45.278042,
    "lng": 9.4358358
  },
  {
    "name": "Bosaro",
    "lat": 45.0007997,
    "lng": 11.7665362
  },
  {
    "name": "Caprino",
    "lat": 45.6059385,
    "lng": 10.7951325
  },
  {
    "name": "Molini",
    "lat": 44.5163426,
    "lng": 9.3709883
  },
  {
    "name": "Gildone",
    "lat": 41.510127,
    "lng": 14.739232
  },
  {
    "name": "Ponte Lambro",
    "lat": 45.82658,
    "lng": 9.225441
  },
  {
    "name": "Ottati",
    "lat": 40.4628565,
    "lng": 15.3152335
  },
  {
    "name": "Marmora",
    "lat": 44.4575801,
    "lng": 7.0941739
  },
  {
    "name": "Portalbera",
    "lat": 45.097563,
    "lng": 9.318857
  },
  {
    "name": "Pievepelago",
    "lat": 44.204754,
    "lng": 10.616601
  },
  {
    "name": "Rome",
    "lat": 41.8933203,
    "lng": 12.4829321
  },
  {
    "name": "Caccuri",
    "lat": 39.2274164,
    "lng": 16.7785692
  },
  {
    "name": "Caselle",
    "lat": 43.7137821,
    "lng": 11.8571493
  },
  {
    "name": "Felegara",
    "lat": 44.725112,
    "lng": 10.112324
  },
  {
    "name": "Gagliato",
    "lat": 38.6769784,
    "lng": 16.4626464
  },
  {
    "name": "Pieve a Nievole",
    "lat": 43.8791124,
    "lng": 10.7961119
  },
  {
    "name": "Teverola",
    "lat": 40.9955725,
    "lng": 14.2073729
  },
  {
    "name": "Masio",
    "lat": 44.869649,
    "lng": 8.407741
  },
  {
    "name": "Verolanuova",
    "lat": 45.3285814,
    "lng": 10.0760863
  },
  {
    "name": "Ossimo Superiore",
    "lat": 45.9459848,
    "lng": 10.2279335
  },
  {
    "name": "Bannio",
    "lat": 45.9839218,
    "lng": 8.1464857
  },
  {
    "name": "Trevi nel Lazio",
    "lat": 41.8629591,
    "lng": 13.2463131
  },
  {
    "name": "Casalanguida",
    "lat": 42.0366343,
    "lng": 14.4993554
  },
  {
    "name": "Cassinetta di Lugagnano",
    "lat": 45.4235759,
    "lng": 8.9083136
  },
  {
    "name": "Nibbiano",
    "lat": 44.9051687,
    "lng": 9.3287813
  },
  {
    "name": "Iglesias",
    "lat": 39.3125402,
    "lng": 8.5341109
  },
  {
    "name": "Sant'Anna d'Alfaedo",
    "lat": 45.6274569,
    "lng": 10.9515505
  },
  {
    "name": "Marsico Nuovo",
    "lat": 40.423012,
    "lng": 15.734868
  },
  {
    "name": "Buscate",
    "lat": 45.5449159,
    "lng": 8.8129426
  },
  {
    "name": "Pornassio",
    "lat": 44.0698777,
    "lng": 7.8712894
  },
  {
    "name": "Osoppo",
    "lat": 46.2471852,
    "lng": 13.069637
  },
  {
    "name": "Miggiano",
    "lat": 39.95972,
    "lng": 18.311631
  },
  {
    "name": "Bressanvido",
    "lat": 45.6459759,
    "lng": 11.6329987
  },
  {
    "name": "Melilli",
    "lat": 37.1782878,
    "lng": 15.1266212
  },
  {
    "name": "Sant'Angelo in Vado",
    "lat": 43.6631608,
    "lng": 12.4053612
  },
  {
    "name": "Castello Tesino",
    "lat": 46.0641754,
    "lng": 11.6321708
  },
  {
    "name": "Trezzano Rosa",
    "lat": 45.5828314,
    "lng": 9.4870409
  },
  {
    "name": "Progetto Case Bazzano",
    "lat": 42.3367913,
    "lng": 13.4432429
  },
  {
    "name": "Fontane-Zurane-Gresine",
    "lat": 45.63336,
    "lng": 10.0472
  },
  {
    "name": "Ponte di Piave",
    "lat": 45.7161533,
    "lng": 12.4652271
  },
  {
    "name": "Terracina",
    "lat": 41.2871196,
    "lng": 13.2492009
  },
  {
    "name": "Castel San Giorgio",
    "lat": 40.783712,
    "lng": 14.698841
  },
  {
    "name": "Fresagrandinaria",
    "lat": 41.9785978,
    "lng": 14.6625131
  },
  {
    "name": "Castelnuovo Nigra",
    "lat": 45.438156,
    "lng": 7.694615
  },
  {
    "name": "Sagliano Micca",
    "lat": 45.625764,
    "lng": 8.043319
  },
  {
    "name": "San Martino Bassa",
    "lat": 42.5167842,
    "lng": 14.1279385
  },
  {
    "name": "Cison di Valmarino",
    "lat": 45.9699873,
    "lng": 12.1431366
  },
  {
    "name": "Vaprio d'Adda",
    "lat": 45.5765762,
    "lng": 9.5291744
  },
  {
    "name": "Sale Marasino",
    "lat": 45.715453,
    "lng": 10.1111391
  },
  {
    "name": "Cant\u00f9",
    "lat": 45.7395347,
    "lng": 9.129103
  },
  {
    "name": "Rossano Veneto",
    "lat": 45.7052727,
    "lng": 11.7997866
  },
  {
    "name": "Strambino",
    "lat": 45.381457,
    "lng": 7.88572
  },
  {
    "name": "Soveria Simeri",
    "lat": 38.946589,
    "lng": 16.680106
  },
  {
    "name": "Stanghella",
    "lat": 45.1346243,
    "lng": 11.7560481
  },
  {
    "name": "Mairano",
    "lat": 45.449179,
    "lng": 10.079567
  },
  {
    "name": "Covelo",
    "lat": 45.9785328,
    "lng": 11.0698033
  },
  {
    "name": "Osteria del Gatto",
    "lat": 43.2908578,
    "lng": 12.7502663
  },
  {
    "name": "Cordenons",
    "lat": 46.003731,
    "lng": 12.7186534
  },
  {
    "name": "Cura Carpignano",
    "lat": 45.2120721,
    "lng": 9.2554631
  },
  {
    "name": "Scapoli",
    "lat": 41.615524,
    "lng": 14.058716
  },
  {
    "name": "Prata d'Ansidonia",
    "lat": 42.2778184,
    "lng": 13.6089721
  },
  {
    "name": "Traversella",
    "lat": 45.508458,
    "lng": 7.749415
  },
  {
    "name": "Ramon",
    "lat": 45.7131855,
    "lng": 11.8653572
  },
  {
    "name": "Piano di Conca",
    "lat": 43.8949078,
    "lng": 10.2946044
  },
  {
    "name": "Vergano-Villa",
    "lat": 45.7948642,
    "lng": 9.3776263
  },
  {
    "name": "San Leonardo in Passiria",
    "lat": 46.8118934,
    "lng": 11.2471364
  },
  {
    "name": "Monte Argentario",
    "lat": 42.407352,
    "lng": 11.1503838
  },
  {
    "name": "Orero",
    "lat": 44.4172124,
    "lng": 9.2890384
  },
  {
    "name": "Bagnolo di Po",
    "lat": 45.0160084,
    "lng": 11.5011924
  },
  {
    "name": "Truccazzano",
    "lat": 45.483874,
    "lng": 9.468553
  },
  {
    "name": "Guasila",
    "lat": 39.561843,
    "lng": 9.045439
  },
  {
    "name": "Vazzano",
    "lat": 38.632881,
    "lng": 16.248
  },
  {
    "name": "Sestu",
    "lat": 39.2942475,
    "lng": 9.0929717
  },
  {
    "name": "Melegnano",
    "lat": 45.3587886,
    "lng": 9.3239755
  },
  {
    "name": "Vilminore",
    "lat": 45.9976748,
    "lng": 10.0924803
  },
  {
    "name": "Casalciprano",
    "lat": 41.5803583,
    "lng": 14.5281165
  },
  {
    "name": "Bompietro",
    "lat": 37.7468626,
    "lng": 14.0998377
  },
  {
    "name": "Porto Garibaldi",
    "lat": 44.6784293,
    "lng": 12.2398703
  },
  {
    "name": "Ul\u00e0 Tirso",
    "lat": 40.045951,
    "lng": 8.904029
  },
  {
    "name": "Camerata Cornello",
    "lat": 45.898686,
    "lng": 9.656349
  },
  {
    "name": "Acate",
    "lat": 37.02504,
    "lng": 14.492981
  },
  {
    "name": "Solanas",
    "lat": 39.1375112,
    "lng": 9.4299607
  },
  {
    "name": "Olzai",
    "lat": 40.182856,
    "lng": 9.148332
  },
  {
    "name": "San Pellegrino Terme",
    "lat": 45.8386307,
    "lng": 9.6647313
  },
  {
    "name": "Castelnuovo Berardenga",
    "lat": 43.346341,
    "lng": 11.503334
  },
  {
    "name": "Castelraimondo",
    "lat": 43.208151,
    "lng": 13.053671
  },
  {
    "name": "Solarino",
    "lat": 37.101214,
    "lng": 15.1190391
  },
  {
    "name": "Pignataro Maggiore",
    "lat": 41.190816,
    "lng": 14.172324
  },
  {
    "name": "Levada",
    "lat": 45.6249135,
    "lng": 12.0559956
  },
  {
    "name": "Fornase",
    "lat": 45.6078757,
    "lng": 10.7717836
  },
  {
    "name": "Rodigo",
    "lat": 45.199577,
    "lng": 10.624984
  },
  {
    "name": "Frinco",
    "lat": 45.0049008,
    "lng": 8.1688056
  },
  {
    "name": "Fogliano",
    "lat": 45.8653558,
    "lng": 13.4812174
  },
  {
    "name": "Ponte A Tressa",
    "lat": 43.2508386,
    "lng": 11.3963507
  },
  {
    "name": "Martina Franca",
    "lat": 40.7042378,
    "lng": 17.3399908
  },
  {
    "name": "Montano",
    "lat": 45.7939862,
    "lng": 9.0215403
  },
  {
    "name": "Luson - Luesen",
    "lat": 46.7460773,
    "lng": 11.7624049
  },
  {
    "name": "San Bartolomeo",
    "lat": 43.4245573,
    "lng": 12.5856497
  },
  {
    "name": "Ragalna",
    "lat": 37.6369577,
    "lng": 14.9478757
  },
  {
    "name": "Vicolungo",
    "lat": 45.477564,
    "lng": 8.462731
  },
  {
    "name": "Villafrati",
    "lat": 37.9080125,
    "lng": 13.4863499
  },
  {
    "name": "Serrata",
    "lat": 38.512877,
    "lng": 16.100699
  },
  {
    "name": "Albettone",
    "lat": 45.3581499,
    "lng": 11.5814745
  },
  {
    "name": "Bardello",
    "lat": 45.8348649,
    "lng": 8.698036
  },
  {
    "name": "Santa Maria del Molise",
    "lat": 41.552725,
    "lng": 14.368224
  },
  {
    "name": "Banchette",
    "lat": 45.453558,
    "lng": 7.856318
  },
  {
    "name": "Ampezzo",
    "lat": 46.4122991,
    "lng": 12.7502354
  },
  {
    "name": "Montelarco",
    "lat": 42.1638367,
    "lng": 12.4836861
  },
  {
    "name": "Anduins",
    "lat": 46.2339962,
    "lng": 12.9592053
  },
  {
    "name": "Colombella",
    "lat": 41.8312935,
    "lng": 12.8911566
  },
  {
    "name": "Montacuto",
    "lat": 44.766453,
    "lng": 9.104958
  },
  {
    "name": "Forte dei Marmi",
    "lat": 43.9595891,
    "lng": 10.1699392
  },
  {
    "name": "Palo del Colle",
    "lat": 41.057532,
    "lng": 16.700782
  },
  {
    "name": "Trasaghis",
    "lat": 46.2821797,
    "lng": 13.0754453
  },
  {
    "name": "Silvi",
    "lat": 42.5487923,
    "lng": 14.1187686
  },
  {
    "name": "Cavernago",
    "lat": 45.625097,
    "lng": 9.7616399
  },
  {
    "name": "Saint Marcel",
    "lat": 45.7345596,
    "lng": 7.4461962
  },
  {
    "name": "Moncestino",
    "lat": 45.1547598,
    "lng": 8.1614216
  },
  {
    "name": "Montecchio Maggiore-Alte Ceccato",
    "lat": 45.4960985,
    "lng": 11.411814
  },
  {
    "name": "Serra San Bruno",
    "lat": 38.5745701,
    "lng": 16.3262669
  },
  {
    "name": "Galtell\u00ec",
    "lat": 40.3865886,
    "lng": 9.6143225
  },
  {
    "name": "Mal\u00e8",
    "lat": 46.0726871,
    "lng": 9.1668764
  },
  {
    "name": "Civitaluparella",
    "lat": 41.9449446,
    "lng": 14.303153
  },
  {
    "name": "Luco Mugello",
    "lat": 44.0010924,
    "lng": 11.3965921
  },
  {
    "name": "Piedimonte San Germano Alta",
    "lat": 41.5047681,
    "lng": 13.7519594
  },
  {
    "name": "Villaggio Residenziale",
    "lat": 45.6714408,
    "lng": 8.1547554
  },
  {
    "name": "Codogna-Cardano",
    "lat": 46.0306187,
    "lng": 9.2086212
  },
  {
    "name": "Ponte A Elsa",
    "lat": 43.6895443,
    "lng": 10.89418
  },
  {
    "name": "Frazzan\u00f2",
    "lat": 38.0722687,
    "lng": 14.7449534
  },
  {
    "name": "San Giorgio di Livenza",
    "lat": 45.6521265,
    "lng": 12.7979608
  },
  {
    "name": "Montemale di Cuneo",
    "lat": 44.43743,
    "lng": 7.375327
  },
  {
    "name": "Varazze",
    "lat": 44.3908429,
    "lng": 8.5746718
  },
  {
    "name": "Montefano",
    "lat": 43.411159,
    "lng": 13.438376
  },
  {
    "name": "Seveso",
    "lat": 45.6434655,
    "lng": 9.1373787
  },
  {
    "name": "Piane di Morro",
    "lat": 42.8231241,
    "lng": 13.653558
  },
  {
    "name": "Casandrino",
    "lat": 40.9358637,
    "lng": 14.2488046
  },
  {
    "name": "Spiazzo",
    "lat": 46.103601,
    "lng": 10.73937
  },
  {
    "name": "Bruno",
    "lat": 44.793248,
    "lng": 8.440543
  },
  {
    "name": "Morsasco",
    "lat": 44.665346,
    "lng": 8.550848
  },
  {
    "name": "Basiliano",
    "lat": 46.016319,
    "lng": 13.107126
  },
  {
    "name": "Brennero - Brenner",
    "lat": 47.0025317,
    "lng": 11.5051407
  },
  {
    "name": "Posina",
    "lat": 45.7910878,
    "lng": 11.2625174
  },
  {
    "name": "Lodine",
    "lat": 40.1480795,
    "lng": 9.2182943
  },
  {
    "name": "Castelpagano",
    "lat": 41.401725,
    "lng": 14.808035
  },
  {
    "name": "Guardistallo",
    "lat": 43.3127077,
    "lng": 10.6328398
  },
  {
    "name": "Castiglione delle Stiviere",
    "lat": 45.3896766,
    "lng": 10.4888745
  },
  {
    "name": "Caldonazzo",
    "lat": 45.9915227,
    "lng": 11.2621326
  },
  {
    "name": "Cocconato",
    "lat": 45.0874595,
    "lng": 8.0392207
  },
  {
    "name": "Marano Equo",
    "lat": 41.994024,
    "lng": 13.015988
  },
  {
    "name": "Camporotondo Etneo",
    "lat": 37.5675898,
    "lng": 15.0051306
  },
  {
    "name": "Frascati",
    "lat": 41.8082452,
    "lng": 12.6803684
  },
  {
    "name": "Capolona",
    "lat": 43.563998,
    "lng": 11.8587865
  },
  {
    "name": "Palmi",
    "lat": 38.3574488,
    "lng": 15.8465649
  },
  {
    "name": "Isola D'Arbia",
    "lat": 43.2663555,
    "lng": 11.3743134
  },
  {
    "name": "Senales",
    "lat": 46.7277242,
    "lng": 10.8627565
  },
  {
    "name": "Schiavon",
    "lat": 45.6977089,
    "lng": 11.6442826
  },
  {
    "name": "Scanno",
    "lat": 41.9038608,
    "lng": 13.880213
  },
  {
    "name": "Cesano Maderno",
    "lat": 45.6281892,
    "lng": 9.1462397
  },
  {
    "name": "Mosso Santa Maria",
    "lat": 45.6462412,
    "lng": 8.1366384
  },
  {
    "name": "Ponte Buggianese",
    "lat": 43.8409347,
    "lng": 10.7475475
  },
  {
    "name": "Limena",
    "lat": 45.4743763,
    "lng": 11.8449327
  },
  {
    "name": "Roaschia",
    "lat": 44.2701049,
    "lng": 7.4559758
  },
  {
    "name": "Capriva del Friuli",
    "lat": 45.9414163,
    "lng": 13.5136289
  },
  {
    "name": "Pietracamela",
    "lat": 42.52354,
    "lng": 13.555392
  },
  {
    "name": "Sadali",
    "lat": 39.81325,
    "lng": 9.27194
  },
  {
    "name": "Castelfiorentino",
    "lat": 43.6056068,
    "lng": 10.9712484
  },
  {
    "name": "Sale delle Langhe",
    "lat": 44.395235,
    "lng": 8.080143
  },
  {
    "name": "Cadelbosco di Sotto",
    "lat": 44.8027264,
    "lng": 10.61737
  },
  {
    "name": "Villa Sant'Antonio",
    "lat": 39.859148,
    "lng": 8.901532
  },
  {
    "name": "Carnago",
    "lat": 45.7228491,
    "lng": 8.8358485
  },
  {
    "name": "Piobesi d'Alba",
    "lat": 44.7350191,
    "lng": 7.9796685
  },
  {
    "name": "Capriolo",
    "lat": 45.6372565,
    "lng": 9.9336046
  },
  {
    "name": "Preganziol",
    "lat": 45.6025304,
    "lng": 12.2353136
  },
  {
    "name": "Pulfero",
    "lat": 46.1792746,
    "lng": 13.4779928
  },
  {
    "name": "Borgo Valsugana",
    "lat": 46.0533463,
    "lng": 11.4566004
  },
  {
    "name": "Mezzate",
    "lat": 45.4459659,
    "lng": 9.2948647
  },
  {
    "name": "Villasor",
    "lat": 39.380439,
    "lng": 8.942839
  },
  {
    "name": "Villefranche",
    "lat": 45.7400916,
    "lng": 7.4167988
  },
  {
    "name": "Paluzza",
    "lat": 46.5574751,
    "lng": 13.0074634
  },
  {
    "name": "San Zenone",
    "lat": 45.6211893,
    "lng": 10.1015228
  },
  {
    "name": "Gussago",
    "lat": 45.5926638,
    "lng": 10.15345
  },
  {
    "name": "Tornata",
    "lat": 45.104373,
    "lng": 10.430781
  },
  {
    "name": "Val Rezzo",
    "lat": 46.0702578,
    "lng": 9.1008873
  },
  {
    "name": "Giustino",
    "lat": 46.1484401,
    "lng": 10.7694794
  },
  {
    "name": "Arena",
    "lat": 38.562779,
    "lng": 16.2099
  },
  {
    "name": "Aurelia",
    "lat": 45.594524,
    "lng": 11.9446117
  },
  {
    "name": "Castione della Presolana",
    "lat": 45.907455,
    "lng": 10.0350592
  },
  {
    "name": "Mesenzana",
    "lat": 45.947817,
    "lng": 8.7578345
  },
  {
    "name": "Cigli\u00e8",
    "lat": 44.436535,
    "lng": 7.926539
  },
  {
    "name": "Castello Cabiaglio",
    "lat": 45.8934053,
    "lng": 8.7559697
  },
  {
    "name": "Cesiomaggiore",
    "lat": 46.0888165,
    "lng": 11.9876388
  },
  {
    "name": "Cazzago Brabbia",
    "lat": 45.7976859,
    "lng": 8.73319
  },
  {
    "name": "Meolo",
    "lat": 45.6194293,
    "lng": 12.4530566
  },
  {
    "name": "Castri di Lecce",
    "lat": 40.273826,
    "lng": 18.263327
  },
  {
    "name": "Porto Torres",
    "lat": 40.8344403,
    "lng": 8.4031462
  },
  {
    "name": "Castellania",
    "lat": 44.7982682,
    "lng": 8.9304784
  },
  {
    "name": "Casteldelci",
    "lat": 43.7911505,
    "lng": 12.1551264
  },
  {
    "name": "Lissone",
    "lat": 45.6107705,
    "lng": 9.2408409
  },
  {
    "name": "Villa-Nabian",
    "lat": 45.6858206,
    "lng": 7.6902259
  },
  {
    "name": "Locate di Triulzi",
    "lat": 45.3579318,
    "lng": 9.2246411
  },
  {
    "name": "Verolavecchia",
    "lat": 45.3270123,
    "lng": 10.0572562
  },
  {
    "name": "Crecchio",
    "lat": 42.2985442,
    "lng": 14.3268988
  },
  {
    "name": "Ronchi dei Legionari",
    "lat": 45.8278081,
    "lng": 13.5018454
  },
  {
    "name": "Staffa",
    "lat": 45.967934,
    "lng": 7.9681268
  },
  {
    "name": "Pregnana Milanese",
    "lat": 45.5165094,
    "lng": 9.007279
  },
  {
    "name": "Piccarello",
    "lat": 41.4617784,
    "lng": 12.9231009
  },
  {
    "name": "Filadelfia",
    "lat": 38.783764,
    "lng": 16.291088
  },
  {
    "name": "Miola di Pin\u00e8",
    "lat": 46.126947,
    "lng": 11.2475895
  },
  {
    "name": "Pago del Vallo di Lauro",
    "lat": 40.897213,
    "lng": 14.607638
  },
  {
    "name": "Crova",
    "lat": 45.3169347,
    "lng": 8.2443272
  },
  {
    "name": "San Mauro Pascoli",
    "lat": 44.1064626,
    "lng": 12.4148977
  },
  {
    "name": "Carpineto della Nora",
    "lat": 42.333038,
    "lng": 13.860802
  },
  {
    "name": "Calasetta",
    "lat": 39.1108144,
    "lng": 8.3682645
  },
  {
    "name": "Azzano d'Asti",
    "lat": 44.8745884,
    "lng": 8.2677909
  },
  {
    "name": "San Pier Niceto",
    "lat": 38.1589177,
    "lng": 15.351874
  },
  {
    "name": "Ternate",
    "lat": 45.7822863,
    "lng": 8.6903182
  },
  {
    "name": "Santa Croce di Magliano",
    "lat": 41.7124096,
    "lng": 14.9933783
  },
  {
    "name": "Pennabilli",
    "lat": 43.8170539,
    "lng": 12.265276
  },
  {
    "name": "Montenars",
    "lat": 46.255026,
    "lng": 13.178824
  },
  {
    "name": "Novara di Sicilia",
    "lat": 38.0160815,
    "lng": 15.13183
  },
  {
    "name": "Isca Marina",
    "lat": 38.6034903,
    "lng": 16.5551444
  },
  {
    "name": "Erve",
    "lat": 45.821582,
    "lng": 9.452846
  },
  {
    "name": "Ferrera Erbognone",
    "lat": 45.115059,
    "lng": 8.864347
  },
  {
    "name": "Silandro",
    "lat": 46.6280688,
    "lng": 10.7734765
  },
  {
    "name": "Pieve di Cadore",
    "lat": 46.4287086,
    "lng": 12.3752967
  },
  {
    "name": "Castel Morrone",
    "lat": 41.121016,
    "lng": 14.354729
  },
  {
    "name": "Torricella in Sabina",
    "lat": 42.263329,
    "lng": 12.870081
  },
  {
    "name": "Quasano",
    "lat": 40.9684141,
    "lng": 16.5781075
  },
  {
    "name": "Calvisi",
    "lat": 41.3253258,
    "lng": 14.4234411
  },
  {
    "name": "San Maurizio",
    "lat": 46.5008142,
    "lng": 11.309716
  },
  {
    "name": "Ordona",
    "lat": 41.315529,
    "lng": 15.627355
  },
  {
    "name": "Badoere",
    "lat": 45.6322919,
    "lng": 12.0840671
  },
  {
    "name": "Moscufo",
    "lat": 42.4281437,
    "lng": 14.0543087
  },
  {
    "name": "Uliveto Terme",
    "lat": 43.6958165,
    "lng": 10.5176833
  },
  {
    "name": "Latiano",
    "lat": 40.5537831,
    "lng": 17.718222
  },
  {
    "name": "Campanella-Gianforma",
    "lat": 36.9257621,
    "lng": 14.8485063
  },
  {
    "name": "Sorbolo",
    "lat": 44.8463143,
    "lng": 10.4488047
  },
  {
    "name": "Vanzago",
    "lat": 45.5268256,
    "lng": 8.9949548
  },
  {
    "name": "San Nicol\u00f2",
    "lat": 42.7534908,
    "lng": 12.7190756
  },
  {
    "name": "Nova Ponente",
    "lat": 46.4139929,
    "lng": 11.4251813
  },
  {
    "name": "Montanaso Lombardo",
    "lat": 45.33577,
    "lng": 9.468656
  },
  {
    "name": "Carassai",
    "lat": 43.032052,
    "lng": 13.684987
  },
  {
    "name": "Ostana",
    "lat": 44.6925209,
    "lng": 7.1883121
  },
  {
    "name": "Sal\u00f2",
    "lat": 45.6056775,
    "lng": 10.520069
  },
  {
    "name": "Madonna Dell'Albero",
    "lat": 44.3804443,
    "lng": 12.2006169
  },
  {
    "name": "Marcon-Gaggio-Colmello",
    "lat": 45.5617417,
    "lng": 12.3014046
  },
  {
    "name": "Chiusi",
    "lat": 43.0160467,
    "lng": 11.947524
  },
  {
    "name": "Mendatica",
    "lat": 44.0763792,
    "lng": 7.8056411
  },
  {
    "name": "Roccasecca Stazione",
    "lat": 41.5321466,
    "lng": 13.6465745
  },
  {
    "name": "Telti",
    "lat": 40.876371,
    "lng": 9.352827
  },
  {
    "name": "Lignana",
    "lat": 45.2855305,
    "lng": 8.3461237
  },
  {
    "name": "Tricarico",
    "lat": 40.620076,
    "lng": 16.1436174
  },
  {
    "name": "Caronno Varesino",
    "lat": 45.7386359,
    "lng": 8.8312264
  },
  {
    "name": "Rottanova",
    "lat": 45.1417237,
    "lng": 12.0137502
  },
  {
    "name": "Granze",
    "lat": 45.154289,
    "lng": 11.7134853
  },
  {
    "name": "Corana",
    "lat": 45.061659,
    "lng": 8.96835
  },
  {
    "name": "Serino",
    "lat": 40.8567145,
    "lng": 14.8705656
  },
  {
    "name": "Godega",
    "lat": 45.8905338,
    "lng": 12.4069012
  },
  {
    "name": "Priero",
    "lat": 44.376035,
    "lng": 8.093343
  },
  {
    "name": "Giuliano di Roma",
    "lat": 41.5393232,
    "lng": 13.2796473
  },
  {
    "name": "Villasimius",
    "lat": 39.14314,
    "lng": 9.520854
  },
  {
    "name": "Rometta Marea",
    "lat": 38.2305569,
    "lng": 15.4037344
  },
  {
    "name": "Savigno",
    "lat": 44.3919473,
    "lng": 11.0745599
  },
  {
    "name": "Laino",
    "lat": 45.984483,
    "lng": 9.075435
  },
  {
    "name": "Provincia di Frosinone",
    "lat": 41.6282513,
    "lng": 13.5757545
  },
  {
    "name": "Rocchetta Belbo",
    "lat": 44.636042,
    "lng": 8.17534
  },
  {
    "name": "Lorenzana",
    "lat": 43.5352109,
    "lng": 10.535052
  },
  {
    "name": "San Michele dei Mucchietti",
    "lat": 44.50618,
    "lng": 10.7502497
  },
  {
    "name": "Battuda",
    "lat": 45.274665,
    "lng": 9.078048
  },
  {
    "name": "Soraga",
    "lat": 46.3946069,
    "lng": 11.6661676
  },
  {
    "name": "Palermo",
    "lat": 38.1112268,
    "lng": 13.3524434
  },
  {
    "name": "San Severino Marche",
    "lat": 43.2290211,
    "lng": 13.1779663
  },
  {
    "name": "Terzo d'Aquileia",
    "lat": 45.8008548,
    "lng": 13.3457543
  },
  {
    "name": "Carinola",
    "lat": 41.1706771,
    "lng": 14.0154591
  },
  {
    "name": "Cattolica Eraclea",
    "lat": 37.44084,
    "lng": 13.392054
  },
  {
    "name": "Cervia",
    "lat": 44.2609836,
    "lng": 12.3495462
  },
  {
    "name": "Robilante",
    "lat": 44.2941824,
    "lng": 7.5111781
  },
  {
    "name": "Villa Fornace",
    "lat": 44.9705682,
    "lng": 9.2530999
  },
  {
    "name": "Lomello",
    "lat": 45.121059,
    "lng": 8.796245
  },
  {
    "name": "Trino",
    "lat": 45.1939397,
    "lng": 8.2969866
  },
  {
    "name": "Ceneselli",
    "lat": 45.0136954,
    "lng": 11.3691561
  },
  {
    "name": "Spinetta Marengo",
    "lat": 44.8861753,
    "lng": 8.6829041
  },
  {
    "name": "Campobasso",
    "lat": 41.717012,
    "lng": 14.8261467
  },
  {
    "name": "Trestina",
    "lat": 43.3679222,
    "lng": 12.2367958
  },
  {
    "name": "San Biagio della Cima",
    "lat": 43.8182416,
    "lng": 7.6488198
  },
  {
    "name": "Torano Nuovo",
    "lat": 42.823048,
    "lng": 13.777293
  },
  {
    "name": "Fanano",
    "lat": 44.2077372,
    "lng": 10.7938365
  },
  {
    "name": "Casirate d'Adda",
    "lat": 45.4941243,
    "lng": 9.5678078
  },
  {
    "name": "Naples",
    "lat": 40.8358846,
    "lng": 14.2487679
  },
  {
    "name": "Pozzale-Case Nuove",
    "lat": 43.6962707,
    "lng": 10.9567035
  },
  {
    "name": "Monte Caminetto",
    "lat": 42.0650274,
    "lng": 12.4781208
  },
  {
    "name": "Val Masino",
    "lat": 46.2458657,
    "lng": 9.6379973
  },
  {
    "name": "Squillace Lido",
    "lat": 38.7769901,
    "lng": 16.5707217
  },
  {
    "name": "Valli",
    "lat": 45.2228308,
    "lng": 12.192922
  },
  {
    "name": "Macomer",
    "lat": 40.2651904,
    "lng": 8.7813868
  },
  {
    "name": "Castelletto",
    "lat": 44.3451924,
    "lng": 7.4185974
  },
  {
    "name": "San Bartolomeo in Galdo",
    "lat": 41.4098544,
    "lng": 15.0153973
  },
  {
    "name": "Povoletto",
    "lat": 46.1181791,
    "lng": 13.2987971
  },
  {
    "name": "Vobbia",
    "lat": 44.6012449,
    "lng": 9.0386677
  },
  {
    "name": "Santopadre",
    "lat": 41.6030659,
    "lng": 13.6349603
  },
  {
    "name": "San Giusto Canavese",
    "lat": 45.315154,
    "lng": 7.80912
  },
  {
    "name": "San Martino",
    "lat": 43.7130588,
    "lng": 10.4044808
  },
  {
    "name": "Refrontolo",
    "lat": 45.9248578,
    "lng": 12.2078305
  },
  {
    "name": "Loranz\u00e8",
    "lat": 45.441657,
    "lng": 7.812718
  },
  {
    "name": "Buggerru",
    "lat": 39.3973967,
    "lng": 8.4021815
  },
  {
    "name": "Pellezzano",
    "lat": 40.725211,
    "lng": 14.757443
  },
  {
    "name": "Taino",
    "lat": 45.7643442,
    "lng": 8.6150606
  },
  {
    "name": "Rocca Pia",
    "lat": 41.93343,
    "lng": 13.97701
  },
  {
    "name": "Moransengo",
    "lat": 45.1148302,
    "lng": 8.025051
  },
  {
    "name": "Palazzolo dello Stella",
    "lat": 45.8048266,
    "lng": 13.0795792
  },
  {
    "name": "Goriano Sicoli",
    "lat": 42.0810749,
    "lng": 13.7744221
  },
  {
    "name": "Lancusi-Penta-Bolano",
    "lat": 40.7622813,
    "lng": 14.7852792
  },
  {
    "name": "Ponte di Barbarano",
    "lat": 45.3921515,
    "lng": 11.5754834
  },
  {
    "name": "Pedrengo",
    "lat": 45.695982,
    "lng": 9.734955
  },
  {
    "name": "Genio Civile",
    "lat": 41.5476447,
    "lng": 12.6922986
  },
  {
    "name": "Zeri",
    "lat": 44.3537185,
    "lng": 9.7632999
  },
  {
    "name": "Moncenisio",
    "lat": 45.2052852,
    "lng": 6.9824996
  },
  {
    "name": "Larderia",
    "lat": 38.1403015,
    "lng": 15.5021217
  },
  {
    "name": "Illorai",
    "lat": 40.353858,
    "lng": 9.001027
  },
  {
    "name": "Valverde",
    "lat": 37.576954,
    "lng": 15.124188
  },
  {
    "name": "Massa Finalese",
    "lat": 44.8500807,
    "lng": 11.2146431
  },
  {
    "name": "Casaloldo",
    "lat": 45.254777,
    "lng": 10.474379
  },
  {
    "name": "Torrecuso",
    "lat": 41.18974,
    "lng": 14.6800554
  },
  {
    "name": "Scalenghe",
    "lat": 44.891741,
    "lng": 7.492521
  },
  {
    "name": "Serravalle Langhe",
    "lat": 44.559239,
    "lng": 8.058639
  },
  {
    "name": "San Rocco al Porto",
    "lat": 45.081966,
    "lng": 9.697165
  },
  {
    "name": "Genzone",
    "lat": 45.1808769,
    "lng": 9.3473035
  },
  {
    "name": "San Pietro Infine",
    "lat": 41.44592,
    "lng": 13.961516
  },
  {
    "name": "Vitulazio",
    "lat": 41.164116,
    "lng": 14.216925
  },
  {
    "name": "Belvedere",
    "lat": 45.6850704,
    "lng": 11.7729604
  },
  {
    "name": "Locara",
    "lat": 45.414655,
    "lng": 11.3373624
  },
  {
    "name": "San Sebastiano da Po",
    "lat": 45.167552,
    "lng": 7.957226
  },
  {
    "name": "Vandoies di Sotto",
    "lat": 46.8151804,
    "lng": 11.7207817
  },
  {
    "name": "Rivarolo del Re",
    "lat": 45.027972,
    "lng": 10.469783
  },
  {
    "name": "Challand-Saint-Anselme",
    "lat": 45.7154622,
    "lng": 7.7630439
  },
  {
    "name": "San Giovanni in Croce",
    "lat": 45.078872,
    "lng": 10.37518
  },
  {
    "name": "Corbara",
    "lat": 40.7247819,
    "lng": 14.592763
  },
  {
    "name": "Pozzaglia Sabino",
    "lat": 41.9435472,
    "lng": 12.5963741
  },
  {
    "name": "Sperone",
    "lat": 40.9523593,
    "lng": 14.6032798
  },
  {
    "name": "Laghetto",
    "lat": 45.5734393,
    "lng": 11.5442211
  },
  {
    "name": "Verona",
    "lat": 45.4384958,
    "lng": 10.9924122
  },
  {
    "name": "Sodd\u00ec",
    "lat": 40.130453,
    "lng": 8.878428
  },
  {
    "name": "Lido degli Estensi",
    "lat": 44.6692798,
    "lng": 12.2433254
  },
  {
    "name": "Livera",
    "lat": 45.6278247,
    "lng": 8.2247968
  },
  {
    "name": "Buttrio",
    "lat": 46.010421,
    "lng": 13.333831
  },
  {
    "name": "Provincia di Crotone",
    "lat": 39.1873894,
    "lng": 16.8782819
  },
  {
    "name": "Nunziata",
    "lat": 38.1118775,
    "lng": 14.8704541
  },
  {
    "name": "Cassina Valsassina",
    "lat": 45.932085,
    "lng": 9.478945
  },
  {
    "name": "Salve",
    "lat": 39.861318,
    "lng": 18.293332
  },
  {
    "name": "Vertemate Con Minoprio",
    "lat": 45.7282151,
    "lng": 9.0784147
  },
  {
    "name": "Gattico",
    "lat": 45.7090365,
    "lng": 8.520193
  },
  {
    "name": "Cassacco",
    "lat": 46.1735947,
    "lng": 13.1879335
  },
  {
    "name": "Plaus",
    "lat": 46.6565754,
    "lng": 11.0414981
  },
  {
    "name": "Grotte di Castro",
    "lat": 42.674529,
    "lng": 11.872253
  },
  {
    "name": "Portici",
    "lat": 40.8189733,
    "lng": 14.3387454
  },
  {
    "name": "Frabosa Sottana",
    "lat": 44.3021646,
    "lng": 7.7980083
  },
  {
    "name": "Como",
    "lat": 45.9394759,
    "lng": 9.1494101
  },
  {
    "name": "Pantalla",
    "lat": 42.8717043,
    "lng": 12.3992674
  },
  {
    "name": "Castelspina",
    "lat": 44.8061493,
    "lng": 8.5831455
  },
  {
    "name": "Pettorazza Grimani",
    "lat": 45.136088,
    "lng": 11.986816
  },
  {
    "name": "Lauzacco",
    "lat": 45.9774371,
    "lng": 13.2816271
  },
  {
    "name": "Pila",
    "lat": 45.7699441,
    "lng": 8.0810802
  },
  {
    "name": "Santa Maria Coghinas",
    "lat": 40.904267,
    "lng": 8.868616
  },
  {
    "name": "Narni Scalo",
    "lat": 42.538302,
    "lng": 12.5234203
  },
  {
    "name": "Sant'Agata Fossili",
    "lat": 44.784752,
    "lng": 8.921154
  },
  {
    "name": "Lonato",
    "lat": 45.4610389,
    "lng": 10.4845346
  },
  {
    "name": "Corbetta",
    "lat": 45.4659366,
    "lng": 8.9200896
  },
  {
    "name": "Alliste",
    "lat": 39.948618,
    "lng": 18.088826
  },
  {
    "name": "Barni",
    "lat": 45.911283,
    "lng": 9.26514
  },
  {
    "name": "Moretta",
    "lat": 44.763839,
    "lng": 7.537125
  },
  {
    "name": "Rocca Canavese",
    "lat": 45.3088539,
    "lng": 7.5758632
  },
  {
    "name": "Solbiate Arno",
    "lat": 45.7190562,
    "lng": 8.8143443
  },
  {
    "name": "Calto",
    "lat": 44.9914983,
    "lng": 11.3564707
  },
  {
    "name": "Ferentino",
    "lat": 41.692932,
    "lng": 13.2534215
  },
  {
    "name": "Aglientu",
    "lat": 41.079573,
    "lng": 9.112719
  },
  {
    "name": "Bettolle",
    "lat": 43.2062701,
    "lng": 11.804331
  },
  {
    "name": "Aprica",
    "lat": 46.152697,
    "lng": 10.151656
  },
  {
    "name": "San Michele di Piave",
    "lat": 45.7980145,
    "lng": 12.3424155
  },
  {
    "name": "Saponara",
    "lat": 38.1938202,
    "lng": 15.4344585
  },
  {
    "name": "Ternengo",
    "lat": 45.5897478,
    "lng": 8.1160279
  },
  {
    "name": "Casa Santa",
    "lat": 38.019841,
    "lng": 12.5494005
  },
  {
    "name": "Monesiglio",
    "lat": 44.465037,
    "lng": 8.118542
  },
  {
    "name": "San Clemente",
    "lat": 43.9322054,
    "lng": 12.6256931
  },
  {
    "name": "Auditore",
    "lat": 43.821561,
    "lng": 12.57035
  },
  {
    "name": "Colli del Tronto",
    "lat": 42.8769738,
    "lng": 13.7483546
  },
  {
    "name": "Martelli-Laganosa",
    "lat": 38.6793,
    "lng": 16.53549
  },
  {
    "name": "Natile Nuovo",
    "lat": 38.1858289,
    "lng": 16.0859976
  },
  {
    "name": "Morigerati",
    "lat": 40.139949,
    "lng": 15.5551821
  },
  {
    "name": "Zoppola",
    "lat": 45.9662544,
    "lng": 12.7715635
  },
  {
    "name": "Chiaromonte",
    "lat": 40.1240088,
    "lng": 16.2138347
  },
  {
    "name": "Agra",
    "lat": 46.0350465,
    "lng": 8.7717205
  },
  {
    "name": "Bivio Santa Cecilia",
    "lat": 40.52224,
    "lng": 15.00018
  },
  {
    "name": "Romagnano Sesia",
    "lat": 45.631067,
    "lng": 8.388627
  },
  {
    "name": "Belforte",
    "lat": 45.8159963,
    "lng": 8.8462538
  },
  {
    "name": "Falvaterra",
    "lat": 41.505118,
    "lng": 13.523806
  },
  {
    "name": "Grignano",
    "lat": 45.6175649,
    "lng": 9.5437096
  },
  {
    "name": "Cerratina",
    "lat": 42.3913265,
    "lng": 14.1017047
  },
  {
    "name": "Carraia",
    "lat": 43.8945668,
    "lng": 11.1805418
  },
  {
    "name": "Corgeno",
    "lat": 45.7476128,
    "lng": 8.6885764
  },
  {
    "name": "Sorso",
    "lat": 40.7965949,
    "lng": 8.5778501
  },
  {
    "name": "Treia",
    "lat": 43.310556,
    "lng": 13.311475
  },
  {
    "name": "San Vito al Mantico",
    "lat": 45.4712751,
    "lng": 10.8928987
  },
  {
    "name": "Corte Franca",
    "lat": 45.6374172,
    "lng": 10.0064681
  },
  {
    "name": "Rotzo",
    "lat": 45.8634667,
    "lng": 11.3993824
  },
  {
    "name": "Diano Marina",
    "lat": 43.9100767,
    "lng": 8.0803641
  },
  {
    "name": "Fiav\u00e8",
    "lat": 46.0045798,
    "lng": 10.8420518
  },
  {
    "name": "Perito",
    "lat": 40.297705,
    "lng": 15.147657
  },
  {
    "name": "Tronzano Lago Maggiore",
    "lat": 46.0889912,
    "lng": 8.733941
  },
  {
    "name": "Castel Sant'Angelo",
    "lat": 42.3938693,
    "lng": 13.0234552
  },
  {
    "name": "Borgia",
    "lat": 38.826186,
    "lng": 16.508804
  },
  {
    "name": "Lana",
    "lat": 46.6160189,
    "lng": 11.1448586
  },
  {
    "name": "Porano",
    "lat": 42.6817096,
    "lng": 12.1020615
  },
  {
    "name": "San Mango d'Aquino",
    "lat": 39.060284,
    "lng": 16.1937065
  },
  {
    "name": "Mamoiada",
    "lat": 40.215657,
    "lng": 9.280435
  },
  {
    "name": "Corzano",
    "lat": 45.4438105,
    "lng": 10.0079911
  },
  {
    "name": "Boissano",
    "lat": 44.1357684,
    "lng": 8.2217538
  },
  {
    "name": "Pianazzo",
    "lat": 46.4281548,
    "lng": 9.3438722
  },
  {
    "name": "Aci Catena",
    "lat": 37.60257,
    "lng": 15.1419604
  },
  {
    "name": "Lettere",
    "lat": 40.704909,
    "lng": 14.544939
  },
  {
    "name": "Bracigliano",
    "lat": 40.823512,
    "lng": 14.705441
  },
  {
    "name": "Farra d'Isonzo",
    "lat": 45.90802,
    "lng": 13.5165379
  },
  {
    "name": "Aragona",
    "lat": 37.4205586,
    "lng": 13.6044175
  },
  {
    "name": "Parenti",
    "lat": 39.162192,
    "lng": 16.410498
  },
  {
    "name": "Mongiuffi Melia",
    "lat": 37.9058768,
    "lng": 15.2557181
  },
  {
    "name": "Capestrano",
    "lat": 42.2675788,
    "lng": 13.7686558
  },
  {
    "name": "Palena",
    "lat": 41.9843588,
    "lng": 14.1380412
  },
  {
    "name": "Somma Vesuviana",
    "lat": 40.8716147,
    "lng": 14.4361417
  },
  {
    "name": "Sclafani Bagni",
    "lat": 37.821589,
    "lng": 13.8547805
  },
  {
    "name": "Trana",
    "lat": 45.039044,
    "lng": 7.421817
  },
  {
    "name": "Colazza",
    "lat": 45.792573,
    "lng": 8.500326
  },
  {
    "name": "Roiate",
    "lat": 41.872322,
    "lng": 13.067291
  },
  {
    "name": "San Venanzio",
    "lat": 44.4980343,
    "lng": 10.8577608
  },
  {
    "name": "Collepasso",
    "lat": 40.07302,
    "lng": 18.1630729
  },
  {
    "name": "Sant'Arcangelo",
    "lat": 40.2466257,
    "lng": 16.2746186
  },
  {
    "name": "Carpineto Sinello",
    "lat": 42.012036,
    "lng": 14.50502
  },
  {
    "name": "Petrella Salto",
    "lat": 42.295431,
    "lng": 13.068285
  },
  {
    "name": "Callabiana - Chiesa",
    "lat": 45.630369,
    "lng": 8.0957338
  },
  {
    "name": "Margno",
    "lat": 46.030987,
    "lng": 9.381641
  },
  {
    "name": "Villa Adriana",
    "lat": 41.9407843,
    "lng": 12.7762889
  },
  {
    "name": "Sorbo Serpico",
    "lat": 40.9169278,
    "lng": 14.8870973
  },
  {
    "name": "Villassio",
    "lat": 45.8623141,
    "lng": 9.8426551
  },
  {
    "name": "Gorgo della Chiesa",
    "lat": 45.78747,
    "lng": 12.5627
  },
  {
    "name": "Campo",
    "lat": 45.6970687,
    "lng": 10.7637759
  },
  {
    "name": "Portigliola",
    "lat": 38.227673,
    "lng": 16.202204
  },
  {
    "name": "Vinci",
    "lat": 43.7873966,
    "lng": 10.9271055
  },
  {
    "name": "Groscavallo",
    "lat": 45.3684966,
    "lng": 7.2587768
  },
  {
    "name": "Monzuno",
    "lat": 44.2792634,
    "lng": 11.266408
  },
  {
    "name": "Villachiara",
    "lat": 45.355375,
    "lng": 9.930966
  },
  {
    "name": "Francolise",
    "lat": 41.185015,
    "lng": 14.056722
  },
  {
    "name": "Sant'Arsenio",
    "lat": 40.472911,
    "lng": 15.484562
  },
  {
    "name": "Colleverde II",
    "lat": 41.9810288,
    "lng": 12.6264688
  },
  {
    "name": "Siano",
    "lat": 40.8040262,
    "lng": 14.6884317
  },
  {
    "name": "Molina di Ledro",
    "lat": 45.8713002,
    "lng": 10.7755659
  },
  {
    "name": "Pieve Tesino",
    "lat": 46.0693085,
    "lng": 11.608091
  },
  {
    "name": "Villamiroglio",
    "lat": 45.1347252,
    "lng": 8.1702907
  },
  {
    "name": "Anacapri",
    "lat": 40.5557701,
    "lng": 14.213604
  },
  {
    "name": "Altissimo",
    "lat": 45.614739,
    "lng": 11.2512582
  },
  {
    "name": "Troia",
    "lat": 41.363128,
    "lng": 15.312347
  },
  {
    "name": "Castelnuovo Rangone",
    "lat": 44.5513342,
    "lng": 10.935016
  },
  {
    "name": "Belfiore",
    "lat": 45.3631868,
    "lng": 11.2319138
  },
  {
    "name": "Episcopia",
    "lat": 40.074807,
    "lng": 16.098181
  },
  {
    "name": "Govone",
    "lat": 44.804445,
    "lng": 8.094036
  },
  {
    "name": "Caniezza",
    "lat": 45.8631634,
    "lng": 11.9008664
  },
  {
    "name": "Nuxis",
    "lat": 39.152933,
    "lng": 8.738139
  },
  {
    "name": "Castelbianco",
    "lat": 44.1118166,
    "lng": 8.0709079
  },
  {
    "name": "Castel Madama",
    "lat": 41.9769358,
    "lng": 12.8691904
  },
  {
    "name": "Jerzu",
    "lat": 39.791151,
    "lng": 9.518445
  },
  {
    "name": "Valledoria",
    "lat": 40.928283,
    "lng": 8.8245837
  },
  {
    "name": "Verla",
    "lat": 46.1563433,
    "lng": 11.1525627
  },
  {
    "name": "Corleto Monforte",
    "lat": 40.437209,
    "lng": 15.37956
  },
  {
    "name": "Campo Limpido-Favale",
    "lat": 41.96732,
    "lng": 12.77016
  },
  {
    "name": "Rocca Pietore",
    "lat": 46.4335042,
    "lng": 11.9340254
  },
  {
    "name": "Lucinasco",
    "lat": 43.9680214,
    "lng": 7.9639801
  },
  {
    "name": "Terrasini",
    "lat": 38.1528221,
    "lng": 13.0821216
  },
  {
    "name": "Martiniana Po",
    "lat": 44.627234,
    "lng": 7.362823
  },
  {
    "name": "Valle Mosso",
    "lat": 45.6346399,
    "lng": 8.1415916
  },
  {
    "name": "Sellia Marina",
    "lat": 38.8996253,
    "lng": 16.7443298
  },
  {
    "name": "Castiglione Cosentino",
    "lat": 39.3516387,
    "lng": 16.2844314
  },
  {
    "name": "Genga",
    "lat": 43.429655,
    "lng": 12.934965
  },
  {
    "name": "Fontaniva",
    "lat": 45.6376293,
    "lng": 11.7521976
  },
  {
    "name": "Dongo",
    "lat": 46.1229363,
    "lng": 9.2790794
  },
  {
    "name": "Boscotrecase",
    "lat": 40.77431,
    "lng": 14.462036
  },
  {
    "name": "Garessio",
    "lat": 44.202931,
    "lng": 8.0192528
  },
  {
    "name": "Nogara",
    "lat": 45.1790124,
    "lng": 11.0637333
  },
  {
    "name": "Cagnano Varano",
    "lat": 41.828742,
    "lng": 15.773151
  },
  {
    "name": "Lequio Tanaro",
    "lat": 44.559937,
    "lng": 7.882136
  },
  {
    "name": "Spianate",
    "lat": 43.8092112,
    "lng": 10.7147166
  },
  {
    "name": "Sanfr\u00e8",
    "lat": 44.7493842,
    "lng": 7.8033741
  },
  {
    "name": "Campiglia Cervo",
    "lat": 45.6628077,
    "lng": 7.9999421
  },
  {
    "name": "Pozzaglio",
    "lat": 45.2003707,
    "lng": 10.0503375
  },
  {
    "name": "Val di Cava",
    "lat": 43.6390411,
    "lng": 10.6491418
  },
  {
    "name": "Dolzago",
    "lat": 45.76698,
    "lng": 9.339345
  },
  {
    "name": "Torrita Tiberina",
    "lat": 42.2359097,
    "lng": 12.618977
  },
  {
    "name": "Acuto",
    "lat": 41.791521,
    "lng": 13.174394
  },
  {
    "name": "Pescina",
    "lat": 42.02543,
    "lng": 13.657901
  },
  {
    "name": "Maccagno",
    "lat": 44.4151631,
    "lng": 8.994978
  },
  {
    "name": "Chiaramonti",
    "lat": 40.749064,
    "lng": 8.818618
  },
  {
    "name": "Bricherasio",
    "lat": 44.8234086,
    "lng": 7.3052956
  },
  {
    "name": "Pontassieve",
    "lat": 43.7738313,
    "lng": 11.4346286
  },
  {
    "name": "Ara Nova",
    "lat": 41.9272941,
    "lng": 12.239703
  },
  {
    "name": "Buso",
    "lat": 45.5540648,
    "lng": 11.4387126
  },
  {
    "name": "Frascaro",
    "lat": 44.826449,
    "lng": 8.532245
  },
  {
    "name": "Torreglia",
    "lat": 45.3356668,
    "lng": 11.7336397
  },
  {
    "name": "Casanova",
    "lat": 44.467909,
    "lng": 8.9467251
  },
  {
    "name": "Vigatto",
    "lat": 44.7206441,
    "lng": 10.3303243
  },
  {
    "name": "Feroleto della Chiesa",
    "lat": 38.465776,
    "lng": 16.064198
  },
  {
    "name": "Torreano",
    "lat": 46.128525,
    "lng": 13.431132
  },
  {
    "name": "Villapinta",
    "lat": 46.1770966,
    "lng": 9.6767449
  },
  {
    "name": "Quinto Vercellese",
    "lat": 45.3799664,
    "lng": 8.353591
  },
  {
    "name": "Marano Lagunare",
    "lat": 45.7649931,
    "lng": 13.1675011
  },
  {
    "name": "Rota d'Imagna",
    "lat": 45.8308542,
    "lng": 9.512792
  },
  {
    "name": "San Vito",
    "lat": 39.443245,
    "lng": 9.540751
  },
  {
    "name": "Taleggio",
    "lat": 45.9183442,
    "lng": 9.5702913
  },
  {
    "name": "Piumazzo",
    "lat": 44.546263,
    "lng": 11.069717
  },
  {
    "name": "Sant'Antonio",
    "lat": 43.7112918,
    "lng": 10.3977464
  },
  {
    "name": "Tires",
    "lat": 46.4673482,
    "lng": 11.52748
  },
  {
    "name": "Pantigliate",
    "lat": 45.439548,
    "lng": 9.352631
  },
  {
    "name": "Maslianico",
    "lat": 45.8428272,
    "lng": 9.047196
  },
  {
    "name": "Dambel",
    "lat": 46.404712,
    "lng": 11.093072
  },
  {
    "name": "Castorano",
    "lat": 42.8980866,
    "lng": 13.7280424
  },
  {
    "name": "Provincia di Avellino",
    "lat": 40.9965446,
    "lng": 15.140569
  },
  {
    "name": "Molinella",
    "lat": 44.620853,
    "lng": 11.6702371
  },
  {
    "name": "Villa",
    "lat": 46.3310232,
    "lng": 9.4894492
  },
  {
    "name": "Pincara",
    "lat": 44.991381,
    "lng": 11.608809
  },
  {
    "name": "Cergnago",
    "lat": 45.1982014,
    "lng": 8.7728428
  },
  {
    "name": "Zone",
    "lat": 45.7634448,
    "lng": 10.1158821
  },
  {
    "name": "Erchie",
    "lat": 40.4360421,
    "lng": 17.7346286
  },
  {
    "name": "Lapedona",
    "lat": 43.1099814,
    "lng": 13.772857
  },
  {
    "name": "Sambuco",
    "lat": 44.3362918,
    "lng": 7.0793377
  },
  {
    "name": "Prata Sannita Centro",
    "lat": 41.4449162,
    "lng": 14.2067884
  },
  {
    "name": "Castagnole Monferrato",
    "lat": 44.9615961,
    "lng": 8.3062346
  },
  {
    "name": "Bassano Romano",
    "lat": 42.2183916,
    "lng": 12.1930062
  },
  {
    "name": "Predappio",
    "lat": 44.1022154,
    "lng": 11.9816196
  },
  {
    "name": "Paladina",
    "lat": 45.7306737,
    "lng": 9.6079944
  },
  {
    "name": "Montale",
    "lat": 43.9352396,
    "lng": 11.0158786
  },
  {
    "name": "Pietrasanta",
    "lat": 43.9589031,
    "lng": 10.2332031
  },
  {
    "name": "Calavino",
    "lat": 46.046702,
    "lng": 10.985077
  },
  {
    "name": "Casola di Napoli",
    "lat": 40.6960675,
    "lng": 14.5334192
  },
  {
    "name": "Provincia di Siena",
    "lat": 43.1672254,
    "lng": 11.4671812
  },
  {
    "name": "Casoni",
    "lat": 44.9391755,
    "lng": 10.73732
  },
  {
    "name": "Grassano",
    "lat": 40.6326231,
    "lng": 16.2828135
  },
  {
    "name": "Travo",
    "lat": 44.86246,
    "lng": 9.545366
  },
  {
    "name": "Cerbara",
    "lat": 43.5013287,
    "lng": 12.212768
  },
  {
    "name": "Patern\u00f2",
    "lat": 37.5670695,
    "lng": 14.9053521
  },
  {
    "name": "Casalino",
    "lat": 43.4648515,
    "lng": 12.1235678
  },
  {
    "name": "Varsi",
    "lat": 44.662157,
    "lng": 9.846676
  },
  {
    "name": "Piazzolo",
    "lat": 45.9797834,
    "lng": 9.6719704
  },
  {
    "name": "Piossasco",
    "lat": 44.9905547,
    "lng": 7.4637036
  },
  {
    "name": "Tergu",
    "lat": 40.867465,
    "lng": 8.716714
  },
  {
    "name": "Volla",
    "lat": 40.878411,
    "lng": 14.342932
  },
  {
    "name": "Millepini",
    "lat": 45.4668815,
    "lng": 9.3397257
  },
  {
    "name": "San Valentino in Abruzzo Citeriore",
    "lat": 42.233037,
    "lng": 13.985606
  },
  {
    "name": "Cona",
    "lat": 45.1800706,
    "lng": 12.0786953
  },
  {
    "name": "Sassacci",
    "lat": 42.3175927,
    "lng": 12.4299457
  },
  {
    "name": "Ostra",
    "lat": 43.612527,
    "lng": 13.1580611
  },
  {
    "name": "Brunico",
    "lat": 46.7929247,
    "lng": 11.9387229
  },
  {
    "name": "Dronero",
    "lat": 44.4659423,
    "lng": 7.3672557
  },
  {
    "name": "Pietra Marazzi",
    "lat": 44.9437992,
    "lng": 8.6701395
  },
  {
    "name": "Cerro al Lambro",
    "lat": 45.329969,
    "lng": 9.339053
  },
  {
    "name": "Padria",
    "lat": 40.396355,
    "lng": 8.629919
  },
  {
    "name": "Siderno",
    "lat": 38.2761626,
    "lng": 16.2981599
  },
  {
    "name": "San Gabriele-Mondonuovo",
    "lat": 44.6687789,
    "lng": 11.5960925
  },
  {
    "name": "Robbiate",
    "lat": 45.6911341,
    "lng": 9.4413225
  },
  {
    "name": "Marano sul Panaro",
    "lat": 44.4558978,
    "lng": 10.9663838
  },
  {
    "name": "Refrancore",
    "lat": 44.9362968,
    "lng": 8.3436607
  },
  {
    "name": "Verano - Voeran",
    "lat": 46.6036628,
    "lng": 11.2231209
  },
  {
    "name": "Bovolone",
    "lat": 45.2578098,
    "lng": 11.120366
  },
  {
    "name": "Castel San Niccol\u00f2",
    "lat": 43.7229174,
    "lng": 11.6565981
  },
  {
    "name": "Riva Valdobbia",
    "lat": 45.8325126,
    "lng": 7.954363
  },
  {
    "name": "Bisuschio",
    "lat": 45.8748731,
    "lng": 8.871723
  },
  {
    "name": "Tizzano Val Parma",
    "lat": 44.5205442,
    "lng": 10.1991991
  },
  {
    "name": "Torre Santa Susanna",
    "lat": 40.465627,
    "lng": 17.735612
  },
  {
    "name": "Roccagloriosa",
    "lat": 40.108662,
    "lng": 15.4333486
  },
  {
    "name": "Talana",
    "lat": 40.042056,
    "lng": 9.496541
  },
  {
    "name": "Gradoli",
    "lat": 42.6436919,
    "lng": 11.854888
  },
  {
    "name": "Maserada sul Piave",
    "lat": 45.7494106,
    "lng": 12.3193327
  },
  {
    "name": "Mignano Monte Lungo",
    "lat": 41.406662,
    "lng": 13.9831998
  },
  {
    "name": "Bologna",
    "lat": 44.4938203,
    "lng": 11.3426327
  },
  {
    "name": "Rivoli Veronese",
    "lat": 45.5719818,
    "lng": 10.8117614
  },
  {
    "name": "Arcevia",
    "lat": 43.4994505,
    "lng": 12.9400955
  },
  {
    "name": "Villa di Chiavenna",
    "lat": 46.3310232,
    "lng": 9.4894492
  },
  {
    "name": "Rosarno",
    "lat": 38.4872833,
    "lng": 15.9764948
  },
  {
    "name": "Suisio",
    "lat": 45.6559017,
    "lng": 9.5001537
  },
  {
    "name": "Bulciago",
    "lat": 45.7547028,
    "lng": 9.291047
  },
  {
    "name": "Pietre",
    "lat": 40.700019,
    "lng": 14.6231067
  },
  {
    "name": "Solagna",
    "lat": 45.8167214,
    "lng": 11.7181699
  },
  {
    "name": "Mezzegra",
    "lat": 45.9824822,
    "lng": 9.2039657
  },
  {
    "name": "Zapponeta",
    "lat": 41.4569644,
    "lng": 15.9565315
  },
  {
    "name": "Roccavione",
    "lat": 44.314628,
    "lng": 7.482432
  },
  {
    "name": "Vado",
    "lat": 44.3174852,
    "lng": 11.2581749
  },
  {
    "name": "Rosello",
    "lat": 41.900832,
    "lng": 14.349818
  },
  {
    "name": "Marocchi",
    "lat": 44.7543986,
    "lng": 7.9394019
  },
  {
    "name": "Piano dei Geli",
    "lat": 38.09919,
    "lng": 13.27478
  },
  {
    "name": "Moasca",
    "lat": 44.7627191,
    "lng": 8.2778224
  },
  {
    "name": "Brusnengo",
    "lat": 45.593865,
    "lng": 8.251924
  },
  {
    "name": "Granarolo dell'Emilia e Viadagola",
    "lat": 44.55327,
    "lng": 11.44291
  },
  {
    "name": "Vallada Agordina",
    "lat": 46.3756034,
    "lng": 11.9369554
  },
  {
    "name": "Menarola",
    "lat": 46.2995965,
    "lng": 9.3598956
  },
  {
    "name": "Villagrande",
    "lat": 43.8402291,
    "lng": 12.3591843
  },
  {
    "name": "Pellestrina",
    "lat": 45.2723303,
    "lng": 12.3008365
  },
  {
    "name": "Cimbergo",
    "lat": 46.024096,
    "lng": 10.365663
  },
  {
    "name": "Vignacastrisi",
    "lat": 40.0163872,
    "lng": 18.4064951
  },
  {
    "name": "Nule",
    "lat": 40.461561,
    "lng": 9.189829
  },
  {
    "name": "Zerba",
    "lat": 44.666153,
    "lng": 9.287164
  },
  {
    "name": "Caronia",
    "lat": 38.024707,
    "lng": 14.4405839
  },
  {
    "name": "Rodi Garganico",
    "lat": 41.928745,
    "lng": 15.881052
  },
  {
    "name": "Dozza",
    "lat": 44.3593911,
    "lng": 11.6288788
  },
  {
    "name": "San Martino d'Agri",
    "lat": 40.2397458,
    "lng": 16.0530431
  },
  {
    "name": "Rosciano",
    "lat": 42.3206925,
    "lng": 14.042931
  },
  {
    "name": "Rofrano",
    "lat": 40.211405,
    "lng": 15.427864
  },
  {
    "name": "Pontelatone",
    "lat": 41.193517,
    "lng": 14.251726
  },
  {
    "name": "San Mauro Castelverde",
    "lat": 37.9146277,
    "lng": 14.1903782
  },
  {
    "name": "Castelverde",
    "lat": 45.188771,
    "lng": 9.99557
  },
  {
    "name": "Ospedalicchio",
    "lat": 43.0791726,
    "lng": 12.5046018
  },
  {
    "name": "San Germano dei Berici",
    "lat": 45.4005843,
    "lng": 11.4737685
  },
  {
    "name": "Terlizzi",
    "lat": 41.1302336,
    "lng": 16.5424713
  },
  {
    "name": "Cusio",
    "lat": 45.990888,
    "lng": 9.601746
  },
  {
    "name": "Morgongiori",
    "lat": 39.746644,
    "lng": 8.770131
  },
  {
    "name": "Inzago",
    "lat": 45.540475,
    "lng": 9.482052
  },
  {
    "name": "San Giuseppe",
    "lat": 45.865685,
    "lng": 8.0231827
  },
  {
    "name": "Molino-Pera",
    "lat": 44.48803,
    "lng": 8.30899
  },
  {
    "name": "Gallo",
    "lat": 42.8743054,
    "lng": 12.6616405
  },
  {
    "name": "Monteleone di Spoleto",
    "lat": 42.6510059,
    "lng": 12.9515599
  },
  {
    "name": "Altamura",
    "lat": 40.8285595,
    "lng": 16.5527314
  },
  {
    "name": "Spilimbergo",
    "lat": 46.1084562,
    "lng": 12.8720969
  },
  {
    "name": "Castano Primo",
    "lat": 45.5515936,
    "lng": 8.7769924
  },
  {
    "name": "Sovico",
    "lat": 45.6485558,
    "lng": 9.2648372
  },
  {
    "name": "Cartignano",
    "lat": 44.4776544,
    "lng": 7.2877708
  },
  {
    "name": "Massazza",
    "lat": 45.491362,
    "lng": 8.164524
  },
  {
    "name": "Francenigo",
    "lat": 45.9078599,
    "lng": 12.5073441
  },
  {
    "name": "Sant'Eusanio Forconese",
    "lat": 42.2882175,
    "lng": 13.5244165
  },
  {
    "name": "Nocelleto",
    "lat": 40.7758537,
    "lng": 14.7651744
  },
  {
    "name": "Castelvecchio Calvisio",
    "lat": 42.3106488,
    "lng": 13.6886152
  },
  {
    "name": "Provincia di Latina",
    "lat": 41.4595261,
    "lng": 13.0125912
  },
  {
    "name": "Vigo di Fassa",
    "lat": 46.4204045,
    "lng": 11.6726135
  },
  {
    "name": "Borgo a Mozzano",
    "lat": 43.978948,
    "lng": 10.545703
  },
  {
    "name": "Meda",
    "lat": 45.6625046,
    "lng": 9.1567532
  },
  {
    "name": "Bariano",
    "lat": 45.5126464,
    "lng": 9.7049249
  },
  {
    "name": "Pino sulla Sponda del Lago Maggiore",
    "lat": 46.101392,
    "lng": 8.7394492
  },
  {
    "name": "Castrignano del Capo",
    "lat": 39.832318,
    "lng": 18.351233
  },
  {
    "name": "Fara in Sabina",
    "lat": 42.2095582,
    "lng": 12.7293703
  },
  {
    "name": "Tesero",
    "lat": 46.290416,
    "lng": 11.511977
  },
  {
    "name": "Angera",
    "lat": 45.7721876,
    "lng": 8.5751222
  },
  {
    "name": "Castiglione a Casauria",
    "lat": 42.2363783,
    "lng": 13.8960373
  },
  {
    "name": "Ponzano Monferrato",
    "lat": 45.084853,
    "lng": 8.265534
  },
  {
    "name": "Conzano",
    "lat": 45.0346211,
    "lng": 8.4636133
  },
  {
    "name": "Morra de Sanctis",
    "lat": 40.929019,
    "lng": 15.242851
  },
  {
    "name": "Quarrata",
    "lat": 43.8475005,
    "lng": 10.9777009
  },
  {
    "name": "Nocera Inferiore",
    "lat": 40.7472133,
    "lng": 14.6433202
  },
  {
    "name": "Tramonti di Sopra",
    "lat": 46.3088622,
    "lng": 12.788497
  },
  {
    "name": "Lugugnana",
    "lat": 45.7330575,
    "lng": 12.9561329
  },
  {
    "name": "Belgioioso",
    "lat": 45.158565,
    "lng": 9.313756
  },
  {
    "name": "San Fior di Sopra",
    "lat": 45.9244654,
    "lng": 12.3605189
  },
  {
    "name": "Cava-Cuculera Nobile",
    "lat": 38.8899104,
    "lng": 16.6281163
  },
  {
    "name": "Pasian di Prato",
    "lat": 46.0485134,
    "lng": 13.1875972
  },
  {
    "name": "Pietrafitta",
    "lat": 39.261393,
    "lng": 16.338595
  },
  {
    "name": "Monfumo",
    "lat": 45.8303733,
    "lng": 11.9211182
  },
  {
    "name": "Verderio Inferiore",
    "lat": 45.6594896,
    "lng": 9.4331784
  },
  {
    "name": "Pallanza-Intra-Suna",
    "lat": 45.9311352,
    "lng": 8.5582754
  },
  {
    "name": "Santa Corinna",
    "lat": 45.3388318,
    "lng": 9.0864859
  },
  {
    "name": "Feisoglio",
    "lat": 44.543739,
    "lng": 8.104941
  },
  {
    "name": "Menconico",
    "lat": 44.7963638,
    "lng": 9.2792795
  },
  {
    "name": "Isola del Liri",
    "lat": 41.6792485,
    "lng": 13.5730766
  },
  {
    "name": "Barbata",
    "lat": 45.474977,
    "lng": 9.77736
  },
  {
    "name": "Vidardo",
    "lat": 45.257268,
    "lng": 9.404556
  },
  {
    "name": "La Martella",
    "lat": 40.66251,
    "lng": 16.53551
  },
  {
    "name": "Cave",
    "lat": 41.8179234,
    "lng": 12.9283673
  },
  {
    "name": "Gordona",
    "lat": 46.2916801,
    "lng": 9.3657433
  },
  {
    "name": "Castiglione del Genovesi",
    "lat": 40.725511,
    "lng": 14.848445
  },
  {
    "name": "Belmonte del Sannio",
    "lat": 41.823931,
    "lng": 14.422121
  },
  {
    "name": "Santerno",
    "lat": 44.2922698,
    "lng": 11.6339391
  },
  {
    "name": "Camairago",
    "lat": 45.205269,
    "lng": 9.727464
  },
  {
    "name": "Scerne",
    "lat": 42.6483079,
    "lng": 14.0382574
  },
  {
    "name": "Albidona",
    "lat": 39.9241209,
    "lng": 16.4698691
  },
  {
    "name": "Gallio",
    "lat": 45.8926258,
    "lng": 11.5471016
  },
  {
    "name": "Melito Irpino",
    "lat": 41.1032532,
    "lng": 15.0520424
  },
  {
    "name": "Cinque Frondi",
    "lat": 38.41618,
    "lng": 16.0842
  },
  {
    "name": "Chieuti",
    "lat": 41.844637,
    "lng": 15.165937
  },
  {
    "name": "Riva",
    "lat": 45.8847708,
    "lng": 10.8396942
  },
  {
    "name": "Pieve",
    "lat": 46.0693085,
    "lng": 11.608091
  },
  {
    "name": "Etroubles",
    "lat": 45.8205823,
    "lng": 7.230574
  },
  {
    "name": "Varano Borghi",
    "lat": 45.7746301,
    "lng": 8.7036658
  },
  {
    "name": "Lirio",
    "lat": 44.993982,
    "lng": 9.255568
  },
  {
    "name": "San Giacomo",
    "lat": 42.7946093,
    "lng": 12.7505912
  },
  {
    "name": "Villasmundo",
    "lat": 37.2514111,
    "lng": 15.092585
  },
  {
    "name": "Arzana",
    "lat": 39.9194634,
    "lng": 9.5270001
  },
  {
    "name": "Campolongo al Torre",
    "lat": 45.8641444,
    "lng": 13.3929338
  },
  {
    "name": "Thiene",
    "lat": 45.7057667,
    "lng": 11.4802561
  },
  {
    "name": "Orio al Serio",
    "lat": 45.6762274,
    "lng": 9.6929555
  },
  {
    "name": "Oppeano",
    "lat": 45.3062139,
    "lng": 11.1823399
  },
  {
    "name": "Micigliano",
    "lat": 42.4513391,
    "lng": 13.0547279
  },
  {
    "name": "Giglio Castello",
    "lat": 42.3665063,
    "lng": 10.9002704
  },
  {
    "name": "Grizzana Morandi",
    "lat": 44.2573596,
    "lng": 11.1528895
  },
  {
    "name": "Ortignano Raggiolo",
    "lat": 43.6803426,
    "lng": 11.7480547
  },
  {
    "name": "Mantegazza",
    "lat": 45.510157,
    "lng": 8.9728248
  },
  {
    "name": "Mure",
    "lat": 45.7355285,
    "lng": 11.6081587
  },
  {
    "name": "Trasacco",
    "lat": 41.9584409,
    "lng": 13.5361021
  },
  {
    "name": "Salerano sul Lambro",
    "lat": 45.296569,
    "lng": 9.385155
  },
  {
    "name": "Centuripe",
    "lat": 37.622952,
    "lng": 14.739079
  },
  {
    "name": "Montemignaio",
    "lat": 43.7398953,
    "lng": 11.6200117
  },
  {
    "name": "Montereale Valcellina",
    "lat": 46.1306874,
    "lng": 12.6531323
  },
  {
    "name": "Monteroduni",
    "lat": 41.5218962,
    "lng": 14.1759397
  },
  {
    "name": "Morolo",
    "lat": 41.638218,
    "lng": 13.197097
  },
  {
    "name": "Giano Vetusto",
    "lat": 41.202716,
    "lng": 14.193424
  },
  {
    "name": "Monte San Martino",
    "lat": 43.03195,
    "lng": 13.438682
  },
  {
    "name": "Capracotta",
    "lat": 41.833903,
    "lng": 14.2642443
  },
  {
    "name": "Gergei",
    "lat": 39.699646,
    "lng": 9.100438
  },
  {
    "name": "Comabbio",
    "lat": 45.7719597,
    "lng": 8.6743917
  },
  {
    "name": "Capizzi",
    "lat": 37.848909,
    "lng": 14.478473
  },
  {
    "name": "Desenzano del Garda",
    "lat": 45.4694851,
    "lng": 10.5389467
  },
  {
    "name": "Torre San Patrizio",
    "lat": 43.182855,
    "lng": 13.612784
  },
  {
    "name": "Osteno-Claino",
    "lat": 46.0067559,
    "lng": 9.0831114
  },
  {
    "name": "La Rotta",
    "lat": 43.658916,
    "lng": 10.6752253
  },
  {
    "name": "Santo Stefano di Camastra",
    "lat": 38.0154435,
    "lng": 14.3490272
  },
  {
    "name": "Capriglio",
    "lat": 45.0041356,
    "lng": 8.0079908
  },
  {
    "name": "Bardonecchia",
    "lat": 45.078339,
    "lng": 6.703205
  },
  {
    "name": "Futani",
    "lat": 40.150703,
    "lng": 15.323163
  },
  {
    "name": "Nibionno",
    "lat": 45.746479,
    "lng": 9.268944
  },
  {
    "name": "Amica",
    "lat": 39.6008607,
    "lng": 16.6684484
  },
  {
    "name": "Magasa",
    "lat": 45.781392,
    "lng": 10.615973
  },
  {
    "name": "Fabbriche di Vallico",
    "lat": 43.9971915,
    "lng": 10.4281154
  },
  {
    "name": "Rotondella",
    "lat": 40.171312,
    "lng": 16.525589
  },
  {
    "name": "Caserta",
    "lat": 41.2034835,
    "lng": 14.1170577
  },
  {
    "name": "Centallo",
    "lat": 44.501533,
    "lng": 7.58783
  },
  {
    "name": "Labro",
    "lat": 42.5260117,
    "lng": 12.8000533
  },
  {
    "name": "Poncarale",
    "lat": 45.4606628,
    "lng": 10.1739092
  },
  {
    "name": "Cavalese",
    "lat": 46.291187,
    "lng": 11.4604681
  },
  {
    "name": "Penna San Giovanni",
    "lat": 43.0569146,
    "lng": 13.4254525
  },
  {
    "name": "Pollein",
    "lat": 45.7279673,
    "lng": 7.3522207
  },
  {
    "name": "Monte Vidon Combatte",
    "lat": 43.0500664,
    "lng": 13.6310024
  },
  {
    "name": "Thiesi",
    "lat": 40.524859,
    "lng": 8.716419
  },
  {
    "name": "Cavedago",
    "lat": 46.1846982,
    "lng": 11.0314163
  },
  {
    "name": "Gualdo Tadino",
    "lat": 43.2316518,
    "lng": 12.7809617
  },
  {
    "name": "Saint-Denis",
    "lat": 45.7647138,
    "lng": 7.5713309
  },
  {
    "name": "Schilpario",
    "lat": 46.008793,
    "lng": 10.157759
  },
  {
    "name": "Casargo",
    "lat": 46.0395202,
    "lng": 9.3882441
  },
  {
    "name": "Scandiano",
    "lat": 44.5993449,
    "lng": 10.6878385
  },
  {
    "name": "Monteverdi Marittimo",
    "lat": 43.1773319,
    "lng": 10.7144314
  },
  {
    "name": "Treppo Grande",
    "lat": 46.190624,
    "lng": 13.158124
  },
  {
    "name": "Grumo Nevano",
    "lat": 40.9381543,
    "lng": 14.2592688
  },
  {
    "name": "Torre Boldone",
    "lat": 45.7162722,
    "lng": 9.7081894
  },
  {
    "name": "Campiglione",
    "lat": 44.803249,
    "lng": 7.3238982
  },
  {
    "name": "Tornaco",
    "lat": 45.357564,
    "lng": 8.715939
  },
  {
    "name": "Cercivento",
    "lat": 46.5272704,
    "lng": 12.9892339
  },
  {
    "name": "San Donato Milanese",
    "lat": 45.41807,
    "lng": 9.27165
  },
  {
    "name": "Colobraro",
    "lat": 40.187312,
    "lng": 16.424986
  },
  {
    "name": "Castelfranco Emilia",
    "lat": 44.5950245,
    "lng": 11.0529006
  },
  {
    "name": "Mezzano",
    "lat": 41.0980797,
    "lng": 14.3452929
  },
  {
    "name": "Curcuris",
    "lat": 39.746145,
    "lng": 8.830632
  },
  {
    "name": "Arpaise",
    "lat": 41.0298168,
    "lng": 14.744083
  },
  {
    "name": "Magreglio",
    "lat": 45.9207466,
    "lng": 9.262095
  },
  {
    "name": "Portacomaro",
    "lat": 44.9574054,
    "lng": 8.258145
  },
  {
    "name": "Canicatt\u00ec",
    "lat": 37.358942,
    "lng": 13.850364
  },
  {
    "name": "Castelnuovo Belbo",
    "lat": 44.8015336,
    "lng": 8.4121874
  },
  {
    "name": "Osimo",
    "lat": 43.4861359,
    "lng": 13.4824068
  },
  {
    "name": "San Paolo",
    "lat": 45.370576,
    "lng": 10.026767
  },
  {
    "name": "Rosa",
    "lat": 45.7244163,
    "lng": 11.7626859
  },
  {
    "name": "Longone Sabino",
    "lat": 42.27313,
    "lng": 12.967383
  },
  {
    "name": "Edolo",
    "lat": 46.1793752,
    "lng": 10.3307572
  },
  {
    "name": "Rivolta d'Adda",
    "lat": 45.4706593,
    "lng": 9.512551
  },
  {
    "name": "Montorio Romano",
    "lat": 42.1384107,
    "lng": 12.8074769
  },
  {
    "name": "Castellana",
    "lat": 42.4001273,
    "lng": 14.1054554
  },
  {
    "name": "Capistrano",
    "lat": 38.692282,
    "lng": 16.289601
  },
  {
    "name": "San Bovio-San Felice",
    "lat": 45.4760441,
    "lng": 9.3047198
  },
  {
    "name": "Rutino",
    "lat": 40.299704,
    "lng": 15.072755
  },
  {
    "name": "Collemeto",
    "lat": 40.2082962,
    "lng": 18.1050343
  },
  {
    "name": "Sirta",
    "lat": 46.1582537,
    "lng": 9.6618076
  },
  {
    "name": "Montemonaco",
    "lat": 42.8991551,
    "lng": 13.3268587
  },
  {
    "name": "Sant'Ambrogio di Valpollicella",
    "lat": 45.52089,
    "lng": 10.83618
  },
  {
    "name": "Bellagio",
    "lat": 45.9872549,
    "lng": 9.2613001
  },
  {
    "name": "Statte",
    "lat": 40.563225,
    "lng": 17.209799
  },
  {
    "name": "Mezzocorona",
    "lat": 46.2154357,
    "lng": 11.1207858
  },
  {
    "name": "Cislago",
    "lat": 45.6587762,
    "lng": 8.9719319
  },
  {
    "name": "Buccheri",
    "lat": 37.126491,
    "lng": 14.8503797
  },
  {
    "name": "Pat\u00f9",
    "lat": 39.841218,
    "lng": 18.338933
  },
  {
    "name": "Parlasco",
    "lat": 46.017886,
    "lng": 9.34494
  },
  {
    "name": "Serrano",
    "lat": 40.1842649,
    "lng": 18.3526168
  },
  {
    "name": "Paterno",
    "lat": 40.378311,
    "lng": 15.732769
  },
  {
    "name": "Valle Martella",
    "lat": 41.8781846,
    "lng": 12.746467
  },
  {
    "name": "Godrano",
    "lat": 37.9033438,
    "lng": 13.4289245
  },
  {
    "name": "Peveragno",
    "lat": 44.330015,
    "lng": 7.6174682
  },
  {
    "name": "Monte di Procida",
    "lat": 40.800907,
    "lng": 14.051827
  },
  {
    "name": "Mussotto",
    "lat": 44.7134044,
    "lng": 8.0167473
  },
  {
    "name": "Casaprota",
    "lat": 42.251028,
    "lng": 12.804279
  },
  {
    "name": "Pieve San Giacomo",
    "lat": 45.130272,
    "lng": 10.186275
  },
  {
    "name": "Ruvo di Puglia",
    "lat": 41.1140866,
    "lng": 16.4863974
  },
  {
    "name": "Bianzano",
    "lat": 45.7745025,
    "lng": 9.9208481
  },
  {
    "name": "Campiglione",
    "lat": 44.803249,
    "lng": 7.3238982
  },
  {
    "name": "Monterosi",
    "lat": 42.195823,
    "lng": 12.308469
  },
  {
    "name": "Bordighera",
    "lat": 43.7850512,
    "lng": 7.6591094
  },
  {
    "name": "Castelnuovo della Daunia",
    "lat": 41.582631,
    "lng": 15.12084
  },
  {
    "name": "San Lorenzo al Mare",
    "lat": 43.8547109,
    "lng": 7.9637075
  },
  {
    "name": "Veleso",
    "lat": 45.908382,
    "lng": 9.182139
  },
  {
    "name": "Besano",
    "lat": 45.8890392,
    "lng": 8.8903883
  },
  {
    "name": "Brignano Gera d'Adda",
    "lat": 45.5455191,
    "lng": 9.6489533
  },
  {
    "name": "Garlasco",
    "lat": 45.197362,
    "lng": 8.923746
  },
  {
    "name": "Casella",
    "lat": 44.5355862,
    "lng": 8.9967857
  },
  {
    "name": "Rumo",
    "lat": 46.4610571,
    "lng": 10.9882457
  },
  {
    "name": "Valera Fratta",
    "lat": 45.2569315,
    "lng": 9.3360078
  },
  {
    "name": "Usini",
    "lat": 40.66406,
    "lng": 8.540513
  },
  {
    "name": "Turano Lodigiano",
    "lat": 45.24887,
    "lng": 9.621461
  },
  {
    "name": "Maccarese",
    "lat": 41.8773647,
    "lng": 12.2145902
  },
  {
    "name": "Torrazza Piemonte",
    "lat": 45.2154216,
    "lng": 7.9745034
  },
  {
    "name": "Campomorone",
    "lat": 44.507337,
    "lng": 8.8901102
  },
  {
    "name": "Chiusdino",
    "lat": 43.154634,
    "lng": 11.084228
  },
  {
    "name": "Scala",
    "lat": 40.6536142,
    "lng": 14.6077924
  },
  {
    "name": "San Venanzo",
    "lat": 42.869337,
    "lng": 12.269859
  },
  {
    "name": "Molino del Pallone",
    "lat": 44.1001184,
    "lng": 10.9612813
  },
  {
    "name": "Cetraro",
    "lat": 39.516595,
    "lng": 15.941584
  },
  {
    "name": "Valgreghentino",
    "lat": 45.7698711,
    "lng": 9.4121681
  },
  {
    "name": "Montegalda",
    "lat": 45.4437746,
    "lng": 11.6732113
  },
  {
    "name": "Argusto",
    "lat": 38.680783,
    "lng": 16.435404
  },
  {
    "name": "Vacchereccia",
    "lat": 43.557615,
    "lng": 11.5002307
  },
  {
    "name": "Vallerotonda",
    "lat": 41.5496912,
    "lng": 13.9145849
  },
  {
    "name": "San Nico",
    "lat": 39.6660028,
    "lng": 16.4310433
  },
  {
    "name": "Sant'Albano Stura",
    "lat": 44.508934,
    "lng": 7.722333
  },
  {
    "name": "Capannori",
    "lat": 43.8420391,
    "lng": 10.5735254
  },
  {
    "name": "Langosco",
    "lat": 45.2143674,
    "lng": 8.5637296
  },
  {
    "name": "Faver",
    "lat": 46.181307,
    "lng": 11.23728
  },
  {
    "name": "Cavizzana",
    "lat": 46.3675013,
    "lng": 10.957923
  },
  {
    "name": "Barumini",
    "lat": 39.701546,
    "lng": 9.002736
  },
  {
    "name": "Mornese",
    "lat": 44.639247,
    "lng": 8.756153
  },
  {
    "name": "Coriano",
    "lat": 43.965186,
    "lng": 12.602374
  },
  {
    "name": "Bassiano",
    "lat": 41.5497551,
    "lng": 13.032233
  },
  {
    "name": "Racale",
    "lat": 39.963119,
    "lng": 18.093826
  },
  {
    "name": "Santa Domenica",
    "lat": 38.6639288,
    "lng": 15.8650571
  },
  {
    "name": "Olivetta San Michele",
    "lat": 43.8693995,
    "lng": 7.5239777
  },
  {
    "name": "Braccagni",
    "lat": 42.8736579,
    "lng": 11.0736302
  },
  {
    "name": "Ispra",
    "lat": 45.815457,
    "lng": 8.6101375
  },
  {
    "name": "Fermignano",
    "lat": 43.6767577,
    "lng": 12.6453734
  },
  {
    "name": "Catania",
    "lat": 37.5023612,
    "lng": 15.0873718
  },
  {
    "name": "Ala di Stura",
    "lat": 45.31515,
    "lng": 7.305909
  },
  {
    "name": "Orsomarso",
    "lat": 39.8001724,
    "lng": 15.9095285
  },
  {
    "name": "Bevagna",
    "lat": 42.9340752,
    "lng": 12.6091209
  },
  {
    "name": "Sevegliano",
    "lat": 45.8874908,
    "lng": 13.3017956
  },
  {
    "name": "Pontoglio",
    "lat": 45.56938,
    "lng": 9.85346
  },
  {
    "name": "Cimolais",
    "lat": 46.287639,
    "lng": 12.4380528
  },
  {
    "name": "Taglio di Po",
    "lat": 45.0057769,
    "lng": 12.2107983
  },
  {
    "name": "Casciana Terme",
    "lat": 43.527338,
    "lng": 10.618212
  },
  {
    "name": "Linarolo",
    "lat": 45.1609808,
    "lng": 9.2709102
  },
  {
    "name": "Atella",
    "lat": 40.880321,
    "lng": 15.650161
  },
  {
    "name": "Pomarico",
    "lat": 40.5179442,
    "lng": 16.5459445
  },
  {
    "name": "Vallepietra",
    "lat": 41.9269887,
    "lng": 13.2306665
  },
  {
    "name": "Giardina Gallotti",
    "lat": 37.3519471,
    "lng": 13.5204008
  },
  {
    "name": "Fratta Terme",
    "lat": 44.1438029,
    "lng": 12.1015912
  },
  {
    "name": "Offagna",
    "lat": 43.5276817,
    "lng": 13.4414721
  },
  {
    "name": "Macherio",
    "lat": 45.640116,
    "lng": 9.269371
  },
  {
    "name": "Collegiove",
    "lat": 42.175528,
    "lng": 13.038986
  },
  {
    "name": "Giorgilorio",
    "lat": 40.3860368,
    "lng": 18.1494478
  },
  {
    "name": "Tufo",
    "lat": 41.0102985,
    "lng": 14.8233166
  },
  {
    "name": "Trentola-Ducenta",
    "lat": 40.9762301,
    "lng": 14.1771658
  },
  {
    "name": "Tre Fontane",
    "lat": 44.503185,
    "lng": 9.0303762
  },
  {
    "name": "Rhemes-Saint-Georges",
    "lat": 45.6549012,
    "lng": 7.1554121
  },
  {
    "name": "San Giovanni Suergiu",
    "lat": 39.1104039,
    "lng": 8.5219989
  },
  {
    "name": "Perugia",
    "lat": 43.1070321,
    "lng": 12.4029962
  },
  {
    "name": "Sernio",
    "lat": 46.2245349,
    "lng": 10.2040968
  },
  {
    "name": "Merlino",
    "lat": 45.433372,
    "lng": 9.429853
  },
  {
    "name": "Caravonica",
    "lat": 43.993025,
    "lng": 7.958047
  },
  {
    "name": "Pievedizio",
    "lat": 45.4605652,
    "lng": 10.0855555
  },
  {
    "name": "Capitignano",
    "lat": 42.5202031,
    "lng": 13.300948
  },
  {
    "name": "Ospedaletto",
    "lat": 46.0435692,
    "lng": 11.5529585
  },
  {
    "name": "Quartiano",
    "lat": 45.3576229,
    "lng": 9.4164065
  },
  {
    "name": "San Cesario sul Panaro",
    "lat": 44.5611362,
    "lng": 11.033218
  },
  {
    "name": "Castiglione di Sicilia",
    "lat": 37.8827606,
    "lng": 15.1222252
  },
  {
    "name": "Orosei",
    "lat": 40.3791803,
    "lng": 9.6950141
  },
  {
    "name": "Torre Annunziata",
    "lat": 40.7525236,
    "lng": 14.4550044
  },
  {
    "name": "Capoterra",
    "lat": 39.175313,
    "lng": 8.9719503
  },
  {
    "name": "Placanica",
    "lat": 38.411878,
    "lng": 16.452507
  },
  {
    "name": "Dosolo",
    "lat": 44.953372,
    "lng": 10.637588
  },
  {
    "name": "Morano sul Po",
    "lat": 45.1641964,
    "lng": 8.3657078
  },
  {
    "name": "Simaxis",
    "lat": 39.930347,
    "lng": 8.692127
  },
  {
    "name": "Capitan Loreto",
    "lat": 43.0187966,
    "lng": 12.6478286
  },
  {
    "name": "Bovalino",
    "lat": 38.148971,
    "lng": 16.174004
  },
  {
    "name": "Amaroni",
    "lat": 38.793085,
    "lng": 16.448103
  },
  {
    "name": "Mantiglia di Ardea",
    "lat": 41.67685,
    "lng": 12.61453
  },
  {
    "name": "Villa di Briano",
    "lat": 41.000012,
    "lng": 14.160726
  },
  {
    "name": "Tavoleto",
    "lat": 43.8438497,
    "lng": 12.5939243
  },
  {
    "name": "Montegiordano",
    "lat": 40.04301,
    "lng": 16.534391
  },
  {
    "name": "Poiano",
    "lat": 44.3828332,
    "lng": 10.4355995
  },
  {
    "name": "Collefontana-Fontana Liri Inferiore",
    "lat": 41.61166,
    "lng": 13.54945
  },
  {
    "name": "Cardeto",
    "lat": 38.084567,
    "lng": 15.766596
  },
  {
    "name": "Terno d'Isola",
    "lat": 45.685479,
    "lng": 9.530951
  },
  {
    "name": "Sant'Antonio",
    "lat": 43.7112918,
    "lng": 10.3977464
  },
  {
    "name": "Alfano",
    "lat": 40.177505,
    "lng": 15.425165
  },
  {
    "name": "Longarone",
    "lat": 46.265786,
    "lng": 12.2999366
  },
  {
    "name": "Ardore Marina",
    "lat": 38.1770797,
    "lng": 16.2067387
  },
  {
    "name": "Cenate di Sotto",
    "lat": 45.6958779,
    "lng": 9.8219734
  },
  {
    "name": "Bassignana",
    "lat": 45.0016337,
    "lng": 8.7346236
  },
  {
    "name": "Sora",
    "lat": 41.7203358,
    "lng": 13.6139576
  },
  {
    "name": "Moimacco",
    "lat": 46.091324,
    "lng": 13.377031
  },
  {
    "name": "Ricadi",
    "lat": 38.6254828,
    "lng": 15.8664301
  },
  {
    "name": "Sporminore",
    "lat": 46.236807,
    "lng": 11.030274
  },
  {
    "name": "Serravalle Scrivia",
    "lat": 44.7255798,
    "lng": 8.8547001
  },
  {
    "name": "Poggio Sannita",
    "lat": 41.7788339,
    "lng": 14.4141996
  },
  {
    "name": "Tronca",
    "lat": 42.0673436,
    "lng": 13.8567681
  },
  {
    "name": "Oppido Lucano",
    "lat": 40.76182,
    "lng": 15.98667
  },
  {
    "name": "Porto San Giorgio",
    "lat": 43.1826562,
    "lng": 13.7933863
  },
  {
    "name": "Bisacquino",
    "lat": 37.7054309,
    "lng": 13.2587609
  },
  {
    "name": "Col San Martino",
    "lat": 45.8944326,
    "lng": 12.0857457
  },
  {
    "name": "Gualtieri",
    "lat": 44.9050126,
    "lng": 10.6302265
  },
  {
    "name": "Giusvalla",
    "lat": 44.447939,
    "lng": 8.394149
  },
  {
    "name": "Itala",
    "lat": 42.6384261,
    "lng": 12.674297
  },
  {
    "name": "San Ferdinando",
    "lat": 38.4831702,
    "lng": 15.9162707
  },
  {
    "name": "Montelera",
    "lat": 44.9912724,
    "lng": 7.836808
  },
  {
    "name": "Veddasca",
    "lat": 46.0709371,
    "lng": 8.7989557
  }
]}