anyio==3.3.4
asgiref==3.4.1
atomicwrites==1.4.0
attrs==21.2.0
click==8.0.3
colorama==0.4.4
fastapi==0.70.0
greenlet==1.1.2
gurobipy==9.5.0
h11==0.12.0
idna==3.3
importlib-metadata==4.11.3
iniconfig==1.1.1
MarkupSafe==2.0.1
packaging==21.2
pluggy==1.0.0
py==1.11.0
pydantic==1.8.2
pyparsing==2.4.7
pytest==6.2.5
python-dotenv==0.19.1
PyYAML==5.4.1
six==1.16.0
sniffio==1.2.0
SQLAlchemy==1.4.35
starlette==0.16.0
toml==0.10.2
typing-extensions==3.10.0.2
urllib3==1.26.7
uvicorn==0.15.0
watchgod==0.7
websockets==10.0
zipp==3.8.0
